%!PS-Adobe-2.0 EPSF-2.0
%%Creator: GLE 4.2.3b <www.gle-graphics.org>
%%CreationDate: Tue Feb 21 16:12:11 2017
%%Title: legend_recy.gle
%%BoundingBox: 0 0 428 428
%%HiResBoundingBox: 0 0 427.197 427.197
%%EndComments
%%EndProlog
gsave
/f {findfont exch scalefont setfont} bind def
/s {show} bind def
/ps {true charpath} bind def
/l {lineto} bind def
/m {newpath moveto} bind def
matrix currentmatrix /originmat exch def
/umatrix {originmat matrix concatmatrix setmatrix} def
[28.3465 0 0 28.3465 0 0] umatrix
[28.3465 0 0 28.3465 1 1] umatrix
[] 0 setdash
0.02 setlinewidth
0 0 0 setrgbcolor
0 0 m
2 2 m
2 2 m
2 2 m
2 2 m
14 2 m
2 2 m
2 2 m
2 14 m
2 2 m
2 2 m
2 2 m
14 2 m
2 2 m
2 2 m
2 14 m
2 14 m
0 0 0 setrgbcolor
0.02 setlinewidth
[] 0 setdash
2 2 m
0 0 0 setrgbcolor
0.02 setlinewidth
[] 0 setdash
0 0 0 setrgbcolor
0.02 setlinewidth
[] 0 setdash
2 2 m
0 0 0 setrgbcolor
0.02 setlinewidth
[] 0 setdash
2 2 m
0 0 0 setrgbcolor
0.02 setlinewidth
[] 0 setdash
0 0 0 setrgbcolor
newpath 3.42317 6.38292 moveto 12.5768 6.38292 l 12.5768 9.61708 l 3.42317 9.61708 l closepath
1 1 1 setrgbcolor
fill
0 0 0 setrgbcolor
newpath
1.3554 0 m
3.74717 8.88328 m
1 1 1 setrgbcolor
[] 0 setdash
0.07 setlinewidth
3.74717 9.08818 m
3.74717 9.08818 m
4.82717 9.08818 l
stroke
5.10257 8.88328 m
[] 0 setdash
0.02 setlinewidth
0 0 0 setrgbcolor
5.10257 8.88328 m
5.10257 8.88328 m
1 setlinejoin
 newpath 5.35817 9.30988 moveto
5.35817 9.30988 moveto
5.36057 9.30928 l
5.36237 9.30808 l
5.36477 9.30568 l
5.43377 9.16708 l
5.45657 9.12148 l
5.45777 9.11848 l
5.52737 8.97928 l
5.57297 8.88868 l
5.57297 8.88388 l
5.57057 8.88268 l
5.13377 8.88268 l
5.13137 8.88388 l
5.13137 8.88868 l
5.20097 9.02728 l
5.24657 9.11848 l
5.24777 9.12148 l
5.31677 9.26008 l
5.33957 9.30568 l
5.34197 9.30808 l
5.34377 9.30928 l
5.34617 9.30988 l
closepath
closepath
5.33117 9.24808 moveto
5.32997 9.24628 l
5.26577 9.11848 l
5.26517 9.11488 l
5.19557 8.97628 l
5.17157 8.92828 l
5.17037 8.92768 l
5.17157 8.92648 l
5.49377 8.92648 l
5.49497 8.92768 l
5.49377 8.92828 l
5.49257 8.93068 l
5.49137 8.93368 l
5.42177 9.07288 l
5.35277 9.21148 l
5.33357 9.24988 l
5.33237 9.25048 l
5.33177 9.24988 l
closepath
closepath
gsave
0 0 0 setrgbcolor
fill
0 0 0 setrgbcolor
grestore
0 setlinejoin
0.02 setlinewidth
0 0 0 setrgbcolor
5.60237 8.88328 m
0.6 /Times-Roman f
(t) s
5.76917 8.75728 m
0.42 /Times-Roman f
(I) s
5.90903 8.75728 m
(C) s
6.18917 8.75728 m
(O) s
6.49241 8.75728 m
(S) s
6.72593 8.75728 m
(L) s
7.13255 8.88328 m
0.6 /Times-Roman f
(\55) s
7.48235 8.88328 m
1 setlinejoin
 newpath 7.73795 9.30988 moveto
7.73795 9.30988 moveto
7.74035 9.30928 l
7.74215 9.30808 l
7.74455 9.30568 l
7.81355 9.16708 l
7.83635 9.12148 l
7.83755 9.11848 l
7.90715 8.97928 l
7.95275 8.88868 l
7.95275 8.88388 l
7.95035 8.88268 l
7.51355 8.88268 l
7.51115 8.88388 l
7.51115 8.88868 l
7.58075 9.02728 l
7.62635 9.11848 l
7.62755 9.12148 l
7.69655 9.26008 l
7.71935 9.30568 l
7.72175 9.30808 l
7.72355 9.30928 l
7.72595 9.30988 l
closepath
closepath
7.71095 9.24808 moveto
7.70975 9.24628 l
7.64555 9.11848 l
7.64495 9.11488 l
7.57535 8.97628 l
7.55135 8.92828 l
7.55015 8.92768 l
7.55135 8.92648 l
7.87355 8.92648 l
7.87475 8.92768 l
7.87355 8.92828 l
7.87235 8.93068 l
7.87115 8.93368 l
7.80155 9.07288 l
7.73255 9.21148 l
7.71335 9.24988 l
7.71215 9.25048 l
7.71155 9.24988 l
closepath
closepath
gsave
0 0 0 setrgbcolor
fill
0 0 0 setrgbcolor
grestore
0 setlinejoin
0.02 setlinewidth
0 0 0 setrgbcolor
7.98215 8.88328 m
(t) s
8.14895 8.75728 m
0.42 /Times-Roman f
(T) s
8.40557 8.75728 m
(f) s
8.54543 8.75728 m
(h) s
8.90543 8.88328 m
0.6 /Times-Roman f
(\55) s
9.25523 8.88328 m
(S) s
9.58883 8.88328 m
(\50) s
9.78863 8.88328 m
(N) s
10.2218 8.75728 m
0.42 /Times-Roman f
(p) s
10.4318 8.88328 m
0.6 /Times-Roman f
(\75) s
10.7702 8.88328 m
(2) s
11.0702 8.88328 m
(\51) s
11.42 8.88328 m
(\55) s
11.7698 8.88328 m
1 setlinejoin
 newpath 12.0026 9.30388 moveto
12.0026 9.30388 moveto
12.0776 9.29968 12.1604 9.24688 12.1682 9.16588 curveto
12.1754 9.07048 12.0866 9.00868 12.0626 8.92228 curveto
12.0632 8.91988 l
12.1238 8.91988 l
12.125 8.92108 l
12.134 8.92108 l
12.1346 8.92228 l
12.14 8.92288 l
12.1436 8.92408 l
12.1454 8.92528 l
12.1466 8.92648 l
12.1478 8.92828 l
12.152 8.94148 l
12.1556 8.95468 l
12.1598 8.97628 l
12.161 8.97808 l
12.1748 8.97808 l
12.1748 8.97748 l
12.1568 8.88508 l
12.1556 8.88268 l
12.05 8.88268 l
12.0482 8.88328 l
12.0404 8.95108 12.08 9.01768 12.0968 9.08488 curveto
12.1148 9.14368 12.1142 9.21568 12.0656 9.26128 curveto
12.0128 9.31108 11.9198 9.29668 11.8844 9.23308 curveto
11.8304 9.13288 11.9048 9.03088 11.9234 8.92948 curveto
11.9234 8.92408 l
11.9246 8.92288 l
11.9246 8.91688 l
11.9258 8.91568 l
11.9258 8.90488 l
11.9264 8.90368 l
11.9264 8.88508 l
11.9234 8.88268 l
11.8172 8.88268 l
11.816 8.88388 l
11.816 8.88928 l
11.8148 8.89048 l
11.7974 8.97748 l
11.7974 8.97808 l
11.8118 8.97808 l
11.813 8.97628 l
11.8172 8.95468 l
11.8202 8.94148 l
11.825 8.92828 l
11.8256 8.92648 l
11.8268 8.92528 l
11.8292 8.92408 l
11.8322 8.92288 l
11.8376 8.92228 l
11.8388 8.92108 l
11.8478 8.92108 l
11.8484 8.91988 l
11.9096 8.91988 l
11.891 9.00088 11.8118 9.05728 11.804 9.14188 curveto
11.7956 9.23188 11.8862 9.30088 11.969 9.30268 curveto
11.9702 9.30388 l
12.0026 9.30388 l
closepath
closepath
gsave
0 0 0 setrgbcolor
fill
0 0 0 setrgbcolor
grestore
0 setlinejoin
0.02 setlinewidth
0 0 0 setrgbcolor
5.10257 8.88328 m
3.74717 8.14692 m
0 0 0 setrgbcolor
[] 0 setdash
0.07 setlinewidth
3.74717 8.35182 m
3.74717 8.35182 m
4.82717 8.35182 l
stroke
5.10257 8.14692 m
[] 0 setdash
0.02 setlinewidth
0 0 0 setrgbcolor
5.08817 8.14692 m
5.08817 8.14692 m
(0) s
5.38817 8.14692 m
(\56) s
5.53817 8.14692 m
(0) s
5.98817 8.14692 m
(h) s
6.28817 8.14692 m
(r) s
6.63797 8.14692 m
(\55) s
6.98777 8.14692 m
(0) s
7.28777 8.14692 m
(\56) s
7.43777 8.14692 m
(8) s
7.73777 8.14692 m
(5) s
8.18777 8.14692 m
(h) s
8.48777 8.14692 m
(r) s
8.68757 8.14692 m
(\57) s
8.85437 8.14692 m
(a) s
9.12077 8.14692 m
(g) s
9.57077 8.14692 m
(\55) s
9.92057 8.14692 m
(0) s
10.2206 8.14692 m
(\56) s
10.3706 8.14692 m
(8) s
10.8206 8.14692 m
(\55) s
11.3954 8.14692 m
(2) s
11.6954 8.14692 m
(\56) s
11.8454 8.14692 m
(1) s
5.10257 8.14692 m
3.74717 7.42692 m
1 0 0 setrgbcolor
[] 0 setdash
0.07 setlinewidth
3.74717 7.63182 m
3.74717 7.63182 m
4.82717 7.63182 l
stroke
5.10257 7.42692 m
[] 0 setdash
0.02 setlinewidth
0 0 0 setrgbcolor
5.07677 7.42692 m
5.07677 7.42692 m
(3) s
5.37677 7.42692 m
(\56) s
5.52677 7.42692 m
(5) s
5.97677 7.42692 m
(h) s
6.27677 7.42692 m
(r) s
6.62657 7.42692 m
(\55) s
6.97637 7.42692 m
(0) s
7.27637 7.42692 m
(\56) s
7.42637 7.42692 m
(8) s
7.72637 7.42692 m
(5) s
8.17637 7.42692 m
(h) s
8.47637 7.42692 m
(r) s
8.67617 7.42692 m
(\57) s
8.84297 7.42692 m
(a) s
9.10937 7.42692 m
(g) s
9.55937 7.42692 m
(\55) s
9.90917 7.42692 m
(0) s
10.2092 7.42692 m
(\56) s
10.3592 7.42692 m
(8) s
10.8092 7.42692 m
(\55) s
11.384 7.42692 m
(0) s
11.684 7.42692 m
(\56) s
11.834 7.42692 m
(6) s
5.10257 7.42692 m
3.74717 6.70692 m
1 0.647059 0 setrgbcolor
[] 0 setdash
0.07 setlinewidth
3.74717 6.91182 m
3.74717 6.91182 m
4.82717 6.91182 l
stroke
5.10257 6.70692 m
[] 0 setdash
0.02 setlinewidth
0 0 0 setrgbcolor
5.07677 6.70692 m
5.07677 6.70692 m
(3) s
5.37677 6.70692 m
(\56) s
5.52677 6.70692 m
(5) s
5.97677 6.70692 m
(h) s
6.27677 6.70692 m
(r) s
6.62657 6.70692 m
(\55) s
6.97637 6.70692 m
(2) s
7.27637 6.70692 m
(\56) s
7.42637 6.70692 m
(0) s
7.72637 6.70692 m
(0) s
8.17637 6.70692 m
(h) s
8.47637 6.70692 m
(r) s
8.67617 6.70692 m
(\57) s
8.84297 6.70692 m
(a) s
9.10937 6.70692 m
(g) s
9.55937 6.70692 m
(\55) s
9.90917 6.70692 m
(0) s
10.2092 6.70692 m
(\56) s
10.3592 6.70692 m
(8) s
10.8092 6.70692 m
(\55) s
11.384 6.70692 m
(2) s
11.684 6.70692 m
(\56) s
11.834 6.70692 m
(4) s
5.10257 6.70692 m
newpath 3.42317 6.38292 moveto 12.5768 6.38292 l 12.5768 9.61708 l 3.42317 9.61708 l closepath
stroke
5.10257 6.70692 m
0 0 0 setrgbcolor
2 2 m
showpage
grestore
%%Trailer
