%!PS-Adobe-2.0 EPSF-2.0
%%Creator: GLE 4.2.3b <www.gle-graphics.org>
%%CreationDate: Tue Feb 21 16:12:10 2017
%%Title: legend_leda.gle
%%BoundingBox: 0 0 428 428
%%HiResBoundingBox: 0 0 427.197 427.197
%%EndComments
%%EndProlog
gsave
/f {findfont exch scalefont setfont} bind def
/s {show} bind def
/ps {true charpath} bind def
/l {lineto} bind def
/m {newpath moveto} bind def
matrix currentmatrix /originmat exch def
/umatrix {originmat matrix concatmatrix setmatrix} def
[28.3465 0 0 28.3465 0 0] umatrix
[28.3465 0 0 28.3465 1 1] umatrix
[] 0 setdash
0.02 setlinewidth
0 0 0 setrgbcolor
0 0 m
2 2 m
2 2 m
2 2 m
2 2 m
14 2 m
2 2 m
2 2 m
2 14 m
2 2 m
2 2 m
2 2 m
14 2 m
2 2 m
2 2 m
2 14 m
2 14 m
0 0 0 setrgbcolor
0.02 setlinewidth
[] 0 setdash
2 2 m
0 0 0 setrgbcolor
0.02 setlinewidth
[] 0 setdash
0 0 0 setrgbcolor
0.02 setlinewidth
[] 0 setdash
2 2 m
0 0 0 setrgbcolor
0.02 setlinewidth
[] 0 setdash
2 2 m
0 0 0 setrgbcolor
0.02 setlinewidth
[] 0 setdash
0 0 0 setrgbcolor
newpath 4.0946 5.6678 moveto 11.9054 5.6678 l 11.9054 10.3322 l 4.0946 10.3322 l closepath
1 1 1 setrgbcolor
fill
0 0 0 setrgbcolor
newpath
1.3554 0 m
4.4186 9.5918 m
1 1 1 setrgbcolor
[] 0 setdash
0.07 setlinewidth
4.4186 9.7982 m
4.4186 9.7982 m
5.4986 9.7982 l
stroke
5.774 9.5918 m
[] 0 setdash
0.02 setlinewidth
0 0 0 setrgbcolor
5.7536 9.5918 m
5.7536 9.5918 m
0.6 /Times-Roman f
(K) s
6.1868 9.4658 m
0.42 /Times-Roman f
(D) s
6.64004 9.5918 m
0.6 /Times-Roman f
(\55) s
6.98984 9.5918 m
1 setlinejoin
 newpath 7.24544 10.0184 moveto
7.24544 10.0184 moveto
7.24784 10.0178 l
7.24964 10.0166 l
7.25204 10.0142 l
7.32104 9.8756 l
7.34384 9.83 l
7.34504 9.827 l
7.41464 9.6878 l
7.46024 9.5972 l
7.46024 9.5924 l
7.45784 9.5912 l
7.02104 9.5912 l
7.01864 9.5924 l
7.01864 9.5972 l
7.08824 9.7358 l
7.13384 9.827 l
7.13504 9.83 l
7.20404 9.9686 l
7.22684 10.0142 l
7.22924 10.0166 l
7.23104 10.0178 l
7.23344 10.0184 l
closepath
closepath
7.21844 9.9566 moveto
7.21724 9.9548 l
7.15304 9.827 l
7.15244 9.8234 l
7.08284 9.6848 l
7.05884 9.6368 l
7.05764 9.6362 l
7.05884 9.635 l
7.38104 9.635 l
7.38224 9.6362 l
7.38104 9.6368 l
7.37984 9.6392 l
7.37864 9.6422 l
7.30904 9.7814 l
7.24004 9.92 l
7.22084 9.9584 l
7.21964 9.959 l
7.21904 9.9584 l
closepath
closepath
gsave
0 0 0 setrgbcolor
fill
0 0 0 setrgbcolor
grestore
0 setlinejoin
0.02 setlinewidth
0 0 0 setrgbcolor
7.48964 9.5918 m
(t) s
7.65644 9.4658 m
0.42 /Times-Roman f
(m) s
7.9832 9.4658 m
(i) s
8.09996 9.4658 m
(n) s
8.45996 9.5918 m
0.6 /Times-Roman f
(\55) s
8.80976 9.5918 m
(A) s
9.24296 9.5918 m
(g) s
9.54296 9.4658 m
0.42 /Times-Roman f
(F) s
9.77648 9.4658 m
(D) s
10.0797 9.4658 m
(C) s
10.5099 9.5918 m
0.6 /Times-Roman f
(\55) s
10.8597 9.5918 m
1 setlinejoin
 newpath 11.0925 10.0124 moveto
11.0925 10.0124 moveto
11.1675 10.0082 11.2503 9.9554 11.2581 9.8744 curveto
11.2653 9.779 11.1765 9.7172 11.1525 9.6308 curveto
11.1531 9.6284 l
11.2137 9.6284 l
11.2149 9.6296 l
11.2239 9.6296 l
11.2245 9.6308 l
11.2299 9.6314 l
11.2335 9.6326 l
11.2353 9.6338 l
11.2365 9.635 l
11.2377 9.6368 l
11.2419 9.65 l
11.2455 9.6632 l
11.2497 9.6848 l
11.2509 9.6866 l
11.2647 9.6866 l
11.2647 9.686 l
11.2467 9.5936 l
11.2455 9.5912 l
11.1399 9.5912 l
11.1381 9.5918 l
11.1303 9.6596 11.1699 9.7262 11.1867 9.7934 curveto
11.2047 9.8522 11.2041 9.9242 11.1555 9.9698 curveto
11.1027 10.0196 11.0097 10.0052 10.9743 9.9416 curveto
10.9203 9.8414 10.9947 9.7394 11.0133 9.638 curveto
11.0133 9.6326 l
11.0145 9.6314 l
11.0145 9.6254 l
11.0157 9.6242 l
11.0157 9.6134 l
11.0163 9.6122 l
11.0163 9.5936 l
11.0133 9.5912 l
10.9071 9.5912 l
10.9059 9.5924 l
10.9059 9.5978 l
10.9047 9.599 l
10.8873 9.686 l
10.8873 9.6866 l
10.9017 9.6866 l
10.9029 9.6848 l
10.9071 9.6632 l
10.9101 9.65 l
10.9149 9.6368 l
10.9155 9.635 l
10.9167 9.6338 l
10.9191 9.6326 l
10.9221 9.6314 l
10.9275 9.6308 l
10.9287 9.6296 l
10.9377 9.6296 l
10.9383 9.6284 l
10.9995 9.6284 l
10.9809 9.7094 10.9017 9.7658 10.8939 9.8504 curveto
10.8855 9.9404 10.9761 10.0094 11.0589 10.0112 curveto
11.0601 10.0124 l
11.0925 10.0124 l
closepath
closepath
gsave
0 0 0 setrgbcolor
fill
0 0 0 setrgbcolor
grestore
0 setlinejoin
0.02 setlinewidth
0 0 0 setrgbcolor
5.774 9.5918 m
4.4186 8.8718 m
0 0 0 setrgbcolor
[] 0 setdash
0.07 setlinewidth
4.4186 9.0782 m
4.4186 9.0782 m
5.4986 9.0782 l
stroke
5.774 8.8718 m
[] 0 setdash
0.02 setlinewidth
0 0 0 setrgbcolor
5.606 8.8718 m
5.756 8.8718 m
(9) s
6.506 8.8718 m
(\55) s
6.8558 8.8718 m
(0) s
7.1558 8.8718 m
(\56) s
7.3058 8.8718 m
(5) s
7.7558 8.8718 m
(h) s
8.0558 8.8718 m
(r) s
8.4056 8.8718 m
(\55) s
8.7554 8.8718 m
(3) s
9.0554 8.8718 m
(0) s
9.3554 8.8718 m
(0) s
9.6554 8.8718 m
(0) s
10.1054 8.8718 m
(\55) s
10.6802 8.8718 m
(1) s
10.9802 8.8718 m
(\56) s
11.1302 8.8718 m
(4) s
5.774 8.8718 m
4.4186 8.1518 m
1 0 0 setrgbcolor
[] 0 setdash
0.07 setlinewidth
4.4186 8.3582 m
4.4186 8.3582 m
5.4986 8.3582 l
stroke
5.774 8.1518 m
[] 0 setdash
0.02 setlinewidth
0 0 0 setrgbcolor
5.606 8.1518 m
5.756 8.1518 m
(9) s
6.506 8.1518 m
(\55) s
6.8558 8.1518 m
(1) s
7.1558 8.1518 m
(\56) s
7.3058 8.1518 m
(5) s
7.7558 8.1518 m
(h) s
8.0558 8.1518 m
(r) s
8.4056 8.1518 m
(\55) s
8.7554 8.1518 m
(3) s
9.0554 8.1518 m
(0) s
9.3554 8.1518 m
(0) s
9.6554 8.1518 m
(0) s
10.1054 8.1518 m
(\55) s
10.6802 8.1518 m
(1) s
10.9802 8.1518 m
(\56) s
11.1302 8.1518 m
(5) s
5.774 8.1518 m
4.4186 7.4318 m
0 0.501961 0 setrgbcolor
[] 0 setdash
0.07 setlinewidth
4.4186 7.6382 m
4.4186 7.6382 m
5.4986 7.6382 l
stroke
5.774 7.4318 m
[] 0 setdash
0.02 setlinewidth
0 0 0 setrgbcolor
5.612 7.4318 m
5.762 7.4318 m
(7) s
6.512 7.4318 m
(\55) s
6.8618 7.4318 m
(1) s
7.1618 7.4318 m
(\56) s
7.3118 7.4318 m
(5) s
7.7618 7.4318 m
(h) s
8.0618 7.4318 m
(r) s
8.4116 7.4318 m
(\55) s
8.7614 7.4318 m
(3) s
9.0614 7.4318 m
(0) s
9.3614 7.4318 m
(0) s
9.6614 7.4318 m
(0) s
10.1114 7.4318 m
(\55) s
10.6862 7.4318 m
(1) s
10.9862 7.4318 m
(\56) s
11.1362 7.4318 m
(7) s
5.774 7.4318 m
4.4186 6.7118 m
0 0 1 setrgbcolor
[] 0 setdash
0.07 setlinewidth
4.4186 6.9182 m
4.4186 6.9182 m
5.4986 6.9182 l
stroke
5.774 6.7118 m
[] 0 setdash
0.02 setlinewidth
0 0 0 setrgbcolor
5.6036 6.7118 m
5.7536 6.7118 m
(6) s
6.5036 6.7118 m
(\55) s
6.8534 6.7118 m
(1) s
7.1534 6.7118 m
(\56) s
7.3034 6.7118 m
(5) s
7.7534 6.7118 m
(h) s
8.0534 6.7118 m
(r) s
8.4032 6.7118 m
(\55) s
8.753 6.7118 m
(2) s
9.053 6.7118 m
(0) s
9.353 6.7118 m
(0) s
9.653 6.7118 m
(0) s
10.103 6.7118 m
(\55) s
10.6778 6.7118 m
(1) s
10.9778 6.7118 m
(\56) s
11.1278 6.7118 m
(6) s
5.774 6.7118 m
4.4186 5.9918 m
1 0 1 setrgbcolor
[] 0 setdash
0.07 setlinewidth
4.4186 6.1982 m
4.4186 6.1982 m
5.4986 6.1982 l
stroke
5.774 5.9918 m
[] 0 setdash
0.02 setlinewidth
0 0 0 setrgbcolor
5.6036 5.9918 m
5.7536 5.9918 m
(6) s
6.5036 5.9918 m
(\55) s
6.8534 5.9918 m
(1) s
7.1534 5.9918 m
(\56) s
7.3034 5.9918 m
(5) s
7.7534 5.9918 m
(h) s
8.0534 5.9918 m
(r) s
8.4032 5.9918 m
(\55) s
8.753 5.9918 m
(3) s
9.053 5.9918 m
(0) s
9.353 5.9918 m
(0) s
9.653 5.9918 m
(0) s
10.103 5.9918 m
(\55) s
10.6778 5.9918 m
(1) s
10.9778 5.9918 m
(\56) s
11.1278 5.9918 m
(7) s
5.774 5.9918 m
newpath 4.0946 5.6678 moveto 11.9054 5.6678 l 11.9054 10.3322 l 4.0946 10.3322 l closepath
stroke
5.774 5.9918 m
0 0 0 setrgbcolor
2 2 m
showpage
grestore
%%Trailer
