%!PS-Adobe-2.0 EPSF-2.0
%%Creator: GLE 4.2.3b <www.gle-graphics.org>
%%CreationDate: Tue Feb 21 16:12:11 2017
%%Title: legend_icos4paper.gle
%%BoundingBox: 0 0 428 428
%%HiResBoundingBox: 0 0 427.197 427.197
%%EndComments
%%EndProlog
gsave
/f {findfont exch scalefont setfont} bind def
/s {show} bind def
/ps {true charpath} bind def
/l {lineto} bind def
/m {newpath moveto} bind def
matrix currentmatrix /originmat exch def
/umatrix {originmat matrix concatmatrix setmatrix} def
[28.3465 0 0 28.3465 0 0] umatrix
[28.3465 0 0 28.3465 1 1] umatrix
[] 0 setdash
0.02 setlinewidth
0 0 0 setrgbcolor
0 0 m
2 2 m
2 2 m
2 2 m
2 2 m
14 2 m
2 2 m
2 2 m
2 14 m
2 2 m
2 2 m
2 2 m
14 2 m
2 2 m
2 2 m
2 14 m
2 14 m
0 0 0 setrgbcolor
0.02 setlinewidth
[] 0 setdash
2 2 m
0 0 0 setrgbcolor
0.02 setlinewidth
[] 0 setdash
0 0 0 setrgbcolor
0.02 setlinewidth
[] 0 setdash
2 2 m
0 0 0 setrgbcolor
0.02 setlinewidth
[] 0 setdash
2 2 m
0 0 0 setrgbcolor
0.02 setlinewidth
[] 0 setdash
0 0 0 setrgbcolor
newpath 3.4031 5.30292 moveto 12.5969 5.30292 l 12.5969 10.6971 l 3.4031 10.6971 l closepath
1 1 1 setrgbcolor
fill
0 0 0 setrgbcolor
newpath
1.3554 0 m
3.7271 9.96328 m
1 1 1 setrgbcolor
[] 0 setdash
0.07 setlinewidth
3.7271 10.1682 m
3.7271 10.1682 m
4.8071 10.1682 l
stroke
5.0825 9.96328 m
[] 0 setdash
0.02 setlinewidth
0 0 0 setrgbcolor
5.0825 9.96328 m
5.0825 9.96328 m
1 setlinejoin
 newpath 5.3381 10.3899 moveto
5.3381 10.3899 moveto
5.3405 10.3893 l
5.3423 10.3881 l
5.3447 10.3857 l
5.4137 10.2471 l
5.4365 10.2015 l
5.4377 10.1985 l
5.5073 10.0593 l
5.5529 9.96868 l
5.5529 9.96388 l
5.5505 9.96268 l
5.1137 9.96268 l
5.1113 9.96388 l
5.1113 9.96868 l
5.1809 10.1073 l
5.2265 10.1985 l
5.2277 10.2015 l
5.2967 10.3401 l
5.3195 10.3857 l
5.3219 10.3881 l
5.3237 10.3893 l
5.3261 10.3899 l
closepath
closepath
5.3111 10.3281 moveto
5.3099 10.3263 l
5.2457 10.1985 l
5.2451 10.1949 l
5.1755 10.0563 l
5.1515 10.0083 l
5.1503 10.0077 l
5.1515 10.0065 l
5.4737 10.0065 l
5.4749 10.0077 l
5.4737 10.0083 l
5.4725 10.0107 l
5.4713 10.0137 l
5.4017 10.1529 l
5.3327 10.2915 l
5.3135 10.3299 l
5.3123 10.3305 l
5.3117 10.3299 l
closepath
closepath
gsave
0 0 0 setrgbcolor
fill
0 0 0 setrgbcolor
grestore
0 setlinejoin
0.02 setlinewidth
0 0 0 setrgbcolor
5.5823 9.96328 m
0.6 /Times-Roman f
(t) s
5.7491 9.83728 m
0.42 /Times-Roman f
(I) s
5.88896 9.83728 m
(C) s
6.1691 9.83728 m
(O) s
6.47234 9.83728 m
(S) s
6.70586 9.83728 m
(L) s
7.11248 9.96328 m
0.6 /Times-Roman f
(\55) s
7.46228 9.96328 m
1 setlinejoin
 newpath 7.71788 10.3899 moveto
7.71788 10.3899 moveto
7.72028 10.3893 l
7.72208 10.3881 l
7.72448 10.3857 l
7.79348 10.2471 l
7.81628 10.2015 l
7.81748 10.1985 l
7.88708 10.0593 l
7.93268 9.96868 l
7.93268 9.96388 l
7.93028 9.96268 l
7.49348 9.96268 l
7.49108 9.96388 l
7.49108 9.96868 l
7.56068 10.1073 l
7.60628 10.1985 l
7.60748 10.2015 l
7.67648 10.3401 l
7.69928 10.3857 l
7.70168 10.3881 l
7.70348 10.3893 l
7.70588 10.3899 l
closepath
closepath
7.69088 10.3281 moveto
7.68968 10.3263 l
7.62548 10.1985 l
7.62488 10.1949 l
7.55528 10.0563 l
7.53128 10.0083 l
7.53008 10.0077 l
7.53128 10.0065 l
7.85348 10.0065 l
7.85468 10.0077 l
7.85348 10.0083 l
7.85228 10.0107 l
7.85108 10.0137 l
7.78148 10.1529 l
7.71248 10.2915 l
7.69328 10.3299 l
7.69208 10.3305 l
7.69148 10.3299 l
closepath
closepath
gsave
0 0 0 setrgbcolor
fill
0 0 0 setrgbcolor
grestore
0 setlinejoin
0.02 setlinewidth
0 0 0 setrgbcolor
7.96208 9.96328 m
(t) s
8.12888 9.83728 m
0.42 /Times-Roman f
(T) s
8.3855 9.83728 m
(f) s
8.52536 9.83728 m
(h) s
8.88536 9.96328 m
0.6 /Times-Roman f
(\55) s
9.23516 9.96328 m
(S) s
9.56876 9.96328 m
(\50) s
9.76856 9.96328 m
(N) s
10.2018 9.83728 m
0.42 /Times-Roman f
(p) s
10.4118 9.96328 m
0.6 /Times-Roman f
(\75) s
10.7502 9.96328 m
(2) s
11.0502 9.96328 m
(\51) s
11.4 9.96328 m
(\55) s
11.7498 9.96328 m
1 setlinejoin
 newpath 11.9826 10.3839 moveto
11.9826 10.3839 moveto
12.0576 10.3797 12.1404 10.3269 12.1482 10.2459 curveto
12.1554 10.1505 12.0666 10.0887 12.0426 10.0023 curveto
12.0432 9.99988 l
12.1038 9.99988 l
12.105 10.0011 l
12.114 10.0011 l
12.1146 10.0023 l
12.12 10.0029 l
12.1236 10.0041 l
12.1254 10.0053 l
12.1266 10.0065 l
12.1278 10.0083 l
12.132 10.0215 l
12.1356 10.0347 l
12.1398 10.0563 l
12.141 10.0581 l
12.1548 10.0581 l
12.1548 10.0575 l
12.1368 9.96508 l
12.1356 9.96268 l
12.03 9.96268 l
12.0282 9.96328 l
12.0204 10.0311 12.06 10.0977 12.0768 10.1649 curveto
12.0948 10.2237 12.0942 10.2957 12.0456 10.3413 curveto
11.9928 10.3911 11.8998 10.3767 11.8644 10.3131 curveto
11.8104 10.2129 11.8848 10.1109 11.9034 10.0095 curveto
11.9034 10.0041 l
11.9046 10.0029 l
11.9046 9.99688 l
11.9058 9.99568 l
11.9058 9.98488 l
11.9064 9.98368 l
11.9064 9.96508 l
11.9034 9.96268 l
11.7972 9.96268 l
11.796 9.96388 l
11.796 9.96928 l
11.7948 9.97048 l
11.7774 10.0575 l
11.7774 10.0581 l
11.7918 10.0581 l
11.793 10.0563 l
11.7972 10.0347 l
11.8002 10.0215 l
11.805 10.0083 l
11.8056 10.0065 l
11.8068 10.0053 l
11.8092 10.0041 l
11.8122 10.0029 l
11.8176 10.0023 l
11.8188 10.0011 l
11.8278 10.0011 l
11.8284 9.99988 l
11.8896 9.99988 l
11.871 10.0809 11.7918 10.1373 11.784 10.2219 curveto
11.7756 10.3119 11.8662 10.3809 11.949 10.3827 curveto
11.9502 10.3839 l
11.9826 10.3839 l
closepath
closepath
gsave
0 0 0 setrgbcolor
fill
0 0 0 setrgbcolor
grestore
0 setlinejoin
0.02 setlinewidth
0 0 0 setrgbcolor
5.0825 9.96328 m
3.7271 9.22692 m
0 0 0 setrgbcolor
[] 0 setdash
0.07 setlinewidth
3.7271 9.43182 m
3.7271 9.43182 m
4.8071 9.43182 l
stroke
5.0825 9.22692 m
[] 0 setdash
0.02 setlinewidth
0 0 0 setrgbcolor
5.0681 9.22692 m
5.0681 9.22692 m
(0) s
5.3681 9.22692 m
(\56) s
5.5181 9.22692 m
(0) s
5.9681 9.22692 m
(h) s
6.2681 9.22692 m
(r) s
6.6179 9.22692 m
(\55) s
6.9677 9.22692 m
(0) s
7.2677 9.22692 m
(\56) s
7.4177 9.22692 m
(8) s
7.7177 9.22692 m
(5) s
8.1677 9.22692 m
(h) s
8.4677 9.22692 m
(r) s
8.6675 9.22692 m
(\57) s
8.8343 9.22692 m
(a) s
9.1007 9.22692 m
(g) s
9.5507 9.22692 m
(\55) s
9.9005 9.22692 m
(0) s
10.2005 9.22692 m
(\56) s
10.3505 9.22692 m
(8) s
10.8005 9.22692 m
(\55) s
11.5253 9.22692 m
(2) s
11.8253 9.22692 m
(\56) s
11.9753 9.22692 m
(1) s
5.0825 9.22692 m
3.7271 8.50692 m
1 0 0 setrgbcolor
[] 0 setdash
0.07 setlinewidth
3.7271 8.71182 m
3.7271 8.71182 m
4.8071 8.71182 l
stroke
5.0825 8.50692 m
[] 0 setdash
0.02 setlinewidth
0 0 0 setrgbcolor
5.0567 8.50692 m
5.0567 8.50692 m
(3) s
5.3567 8.50692 m
(\56) s
5.5067 8.50692 m
(5) s
5.9567 8.50692 m
(h) s
6.2567 8.50692 m
(r) s
6.6065 8.50692 m
(\55) s
6.9563 8.50692 m
(0) s
7.2563 8.50692 m
(\56) s
7.4063 8.50692 m
(8) s
7.7063 8.50692 m
(5) s
8.1563 8.50692 m
(h) s
8.4563 8.50692 m
(r) s
8.6561 8.50692 m
(\57) s
8.8229 8.50692 m
(a) s
9.0893 8.50692 m
(g) s
9.5393 8.50692 m
(\55) s
9.8891 8.50692 m
(0) s
10.1891 8.50692 m
(\56) s
10.3391 8.50692 m
(8) s
10.7891 8.50692 m
(\55) s
11.5139 8.50692 m
(0) s
11.8139 8.50692 m
(\56) s
11.9639 8.50692 m
(6) s
5.0825 8.50692 m
3.7271 7.78692 m
1 0.647059 0 setrgbcolor
[] 0 setdash
0.07 setlinewidth
3.7271 7.99182 m
3.7271 7.99182 m
4.8071 7.99182 l
stroke
5.0825 7.78692 m
[] 0 setdash
0.02 setlinewidth
0 0 0 setrgbcolor
5.0567 7.78692 m
5.0567 7.78692 m
(3) s
5.3567 7.78692 m
(\56) s
5.5067 7.78692 m
(5) s
5.9567 7.78692 m
(h) s
6.2567 7.78692 m
(r) s
6.6065 7.78692 m
(\55) s
6.9563 7.78692 m
(2) s
7.2563 7.78692 m
(\56) s
7.4063 7.78692 m
(0) s
7.7063 7.78692 m
(0) s
8.1563 7.78692 m
(h) s
8.4563 7.78692 m
(r) s
8.6561 7.78692 m
(\57) s
8.8229 7.78692 m
(a) s
9.0893 7.78692 m
(g) s
9.5393 7.78692 m
(\55) s
9.8891 7.78692 m
(0) s
10.1891 7.78692 m
(\56) s
10.3391 7.78692 m
(8) s
10.7891 7.78692 m
(\55) s
11.5139 7.78692 m
(2) s
11.8139 7.78692 m
(\56) s
11.9639 7.78692 m
(4) s
5.0825 7.78692 m
3.7271 7.06692 m
0.588235 0.588235 0.588235 setrgbcolor
[] 0 setdash
0.07 setlinewidth
3.7271 7.27182 m
3.7271 7.27182 m
4.8071 7.27182 l
stroke
5.0825 7.06692 m
[] 0 setdash
0.02 setlinewidth
0 0 0 setrgbcolor
5.0681 7.06692 m
5.0681 7.06692 m
(0) s
5.3681 7.06692 m
(\56) s
5.5181 7.06692 m
(5) s
5.9681 7.06692 m
(h) s
6.2681 7.06692 m
(r) s
6.6179 7.06692 m
(\55) s
6.9677 7.06692 m
(1) s
7.2677 7.06692 m
(\56) s
7.4177 7.06692 m
(7) s
7.7177 7.06692 m
(0) s
8.1677 7.06692 m
(h) s
8.4677 7.06692 m
(r) s
8.6675 7.06692 m
(\57) s
8.8343 7.06692 m
(a) s
9.1007 7.06692 m
(g) s
9.5507 7.06692 m
(\55) s
9.9005 7.06692 m
(1) s
10.2005 7.06692 m
(\56) s
10.3505 7.06692 m
(6) s
10.8005 7.06692 m
(\55) s
11.5253 7.06692 m
(1) s
11.8253 7.06692 m
(\56) s
11.9753 7.06692 m
(8) s
5.0825 7.06692 m
3.7271 6.34692 m
1 0 1 setrgbcolor
[] 0 setdash
0.07 setlinewidth
3.7271 6.55182 m
3.7271 6.55182 m
4.8071 6.55182 l
stroke
5.0825 6.34692 m
[] 0 setdash
0.02 setlinewidth
0 0 0 setrgbcolor
5.0753 6.34692 m
5.0753 6.34692 m
(4) s
5.3753 6.34692 m
(\56) s
5.5253 6.34692 m
(0) s
5.9753 6.34692 m
(h) s
6.2753 6.34692 m
(r) s
6.6251 6.34692 m
(\55) s
6.9749 6.34692 m
(1) s
7.2749 6.34692 m
(\56) s
7.4249 6.34692 m
(7) s
7.7249 6.34692 m
(0) s
8.1749 6.34692 m
(h) s
8.4749 6.34692 m
(r) s
8.6747 6.34692 m
(\57) s
8.8415 6.34692 m
(a) s
9.1079 6.34692 m
(g) s
9.5579 6.34692 m
(\55) s
9.9077 6.34692 m
(1) s
10.2077 6.34692 m
(\56) s
10.3577 6.34692 m
(6) s
10.8077 6.34692 m
(\55) s
11.5325 6.34692 m
(0) s
11.8325 6.34692 m
(\56) s
11.9825 6.34692 m
(9) s
5.0825 6.34692 m
3.7271 5.62692 m
0 1 1 setrgbcolor
[] 0 setdash
0.07 setlinewidth
3.7271 5.83182 m
3.7271 5.83182 m
4.8071 5.83182 l
stroke
5.0825 5.62692 m
[] 0 setdash
0.02 setlinewidth
0 0 0 setrgbcolor
5.0753 5.62692 m
5.0753 5.62692 m
(4) s
5.3753 5.62692 m
(\56) s
5.5253 5.62692 m
(0) s
5.9753 5.62692 m
(h) s
6.2753 5.62692 m
(r) s
6.6251 5.62692 m
(\55) s
6.9749 5.62692 m
(2) s
7.2749 5.62692 m
(\56) s
7.4249 5.62692 m
(5) s
7.7249 5.62692 m
(0) s
8.1749 5.62692 m
(h) s
8.4749 5.62692 m
(r) s
8.6747 5.62692 m
(\57) s
8.8415 5.62692 m
(a) s
9.1079 5.62692 m
(g) s
9.5579 5.62692 m
(\55) s
9.9077 5.62692 m
(1) s
10.2077 5.62692 m
(\56) s
10.3577 5.62692 m
(2) s
10.8077 5.62692 m
(\55) s
11.5325 5.62692 m
(2) s
11.8325 5.62692 m
(\56) s
11.9825 5.62692 m
(1) s
5.0825 5.62692 m
newpath 3.4031 5.30292 moveto 12.5969 5.30292 l 12.5969 10.6971 l 3.4031 10.6971 l closepath
stroke
5.0825 5.62692 m
0 0 0 setrgbcolor
2 2 m
showpage
grestore
%%Trailer
