%!PS-Adobe-2.0 EPSF-2.0
%%Creator: GLE 4.2.3b <www.gle-graphics.org>
%%CreationDate: Tue Feb 21 16:12:11 2017
%%Title: legend_icos.gle
%%BoundingBox: 0 0 428 428
%%HiResBoundingBox: 0 0 427.197 427.197
%%EndComments
%%EndProlog
gsave
/f {findfont exch scalefont setfont} bind def
/s {show} bind def
/ps {true charpath} bind def
/l {lineto} bind def
/m {newpath moveto} bind def
matrix currentmatrix /originmat exch def
/umatrix {originmat matrix concatmatrix setmatrix} def
[28.3465 0 0 28.3465 0 0] umatrix
[28.3465 0 0 28.3465 1 1] umatrix
[] 0 setdash
0.02 setlinewidth
0 0 0 setrgbcolor
0 0 m
2 2 m
2 2 m
2 2 m
2 2 m
14 2 m
2 2 m
2 2 m
2 14 m
2 2 m
2 2 m
2 2 m
14 2 m
2 2 m
2 2 m
2 14 m
2 14 m
0 0 0 setrgbcolor
0.02 setlinewidth
[] 0 setdash
2 2 m
0 0 0 setrgbcolor
0.02 setlinewidth
[] 0 setdash
0 0 0 setrgbcolor
0.02 setlinewidth
[] 0 setdash
2 2 m
0 0 0 setrgbcolor
0.02 setlinewidth
[] 0 setdash
2 2 m
0 0 0 setrgbcolor
0.02 setlinewidth
[] 0 setdash
0 0 0 setrgbcolor
newpath 1.3856 4.58292 moveto 14.6144 4.58292 l 14.6144 11.4171 l 1.3856 11.4171 l closepath
1 1 1 setrgbcolor
fill
0 0 0 setrgbcolor
newpath
1.3554 0 m
1.7096 10.6833 m
1 1 1 setrgbcolor
[] 0 setdash
0.07 setlinewidth
1.7096 10.8882 m
1.7096 10.8882 m
2.7896 10.8882 l
stroke
3.065 10.6833 m
[] 0 setdash
0.02 setlinewidth
0 0 0 setrgbcolor
3.065 10.6833 m
3.065 10.6833 m
1 setlinejoin
 newpath 3.3206 11.1099 moveto
3.3206 11.1099 moveto
3.323 11.1093 l
3.3248 11.1081 l
3.3272 11.1057 l
3.3962 10.9671 l
3.419 10.9215 l
3.4202 10.9185 l
3.4898 10.7793 l
3.5354 10.6887 l
3.5354 10.6839 l
3.533 10.6827 l
3.0962 10.6827 l
3.0938 10.6839 l
3.0938 10.6887 l
3.1634 10.8273 l
3.209 10.9185 l
3.2102 10.9215 l
3.2792 11.0601 l
3.302 11.1057 l
3.3044 11.1081 l
3.3062 11.1093 l
3.3086 11.1099 l
closepath
closepath
3.2936 11.0481 moveto
3.2924 11.0463 l
3.2282 10.9185 l
3.2276 10.9149 l
3.158 10.7763 l
3.134 10.7283 l
3.1328 10.7277 l
3.134 10.7265 l
3.4562 10.7265 l
3.4574 10.7277 l
3.4562 10.7283 l
3.455 10.7307 l
3.4538 10.7337 l
3.3842 10.8729 l
3.3152 11.0115 l
3.296 11.0499 l
3.2948 11.0505 l
3.2942 11.0499 l
closepath
closepath
gsave
0 0 0 setrgbcolor
fill
0 0 0 setrgbcolor
grestore
0 setlinejoin
0.02 setlinewidth
0 0 0 setrgbcolor
3.5648 10.6833 m
0.6 /Times-Roman f
(t) s
3.7316 10.5573 m
0.42 /Times-Roman f
(I) s
3.87146 10.5573 m
(C) s
4.1516 10.5573 m
(O) s
4.45484 10.5573 m
(S) s
4.68836 10.5573 m
(L) s
5.09498 10.6833 m
0.6 /Times-Roman f
(\55) s
5.44478 10.6833 m
1 setlinejoin
 newpath 5.70038 11.1099 moveto
5.70038 11.1099 moveto
5.70278 11.1093 l
5.70458 11.1081 l
5.70698 11.1057 l
5.77598 10.9671 l
5.79878 10.9215 l
5.79998 10.9185 l
5.86958 10.7793 l
5.91518 10.6887 l
5.91518 10.6839 l
5.91278 10.6827 l
5.47598 10.6827 l
5.47358 10.6839 l
5.47358 10.6887 l
5.54318 10.8273 l
5.58878 10.9185 l
5.58998 10.9215 l
5.65898 11.0601 l
5.68178 11.1057 l
5.68418 11.1081 l
5.68598 11.1093 l
5.68838 11.1099 l
closepath
closepath
5.67338 11.0481 moveto
5.67218 11.0463 l
5.60798 10.9185 l
5.60738 10.9149 l
5.53778 10.7763 l
5.51378 10.7283 l
5.51258 10.7277 l
5.51378 10.7265 l
5.83598 10.7265 l
5.83718 10.7277 l
5.83598 10.7283 l
5.83478 10.7307 l
5.83358 10.7337 l
5.76398 10.8729 l
5.69498 11.0115 l
5.67578 11.0499 l
5.67458 11.0505 l
5.67398 11.0499 l
closepath
closepath
gsave
0 0 0 setrgbcolor
fill
0 0 0 setrgbcolor
grestore
0 setlinejoin
0.02 setlinewidth
0 0 0 setrgbcolor
5.94458 10.6833 m
(t) s
6.11138 10.5573 m
0.42 /Times-Roman f
(T) s
6.368 10.5573 m
(f) s
6.50786 10.5573 m
(h) s
6.86786 10.6833 m
0.6 /Times-Roman f
(\55) s
7.21766 10.6833 m
(S) s
7.55126 10.6833 m
(\50) s
7.75106 10.6833 m
(N) s
8.18426 10.5573 m
0.42 /Times-Roman f
(p) s
8.39426 10.6833 m
0.6 /Times-Roman f
(\75) s
8.73266 10.6833 m
(2) s
9.03266 10.6833 m
(\51) s
9.38246 10.6833 m
(\55) s
9.73226 10.6833 m
1 setlinejoin
 newpath 9.96506 11.1039 moveto
9.96506 11.1039 moveto
10.0401 11.0997 10.1229 11.0469 10.1307 10.9659 curveto
10.1379 10.8705 10.0491 10.8087 10.0251 10.7223 curveto
10.0257 10.7199 l
10.0863 10.7199 l
10.0875 10.7211 l
10.0965 10.7211 l
10.0971 10.7223 l
10.1025 10.7229 l
10.1061 10.7241 l
10.1079 10.7253 l
10.1091 10.7265 l
10.1103 10.7283 l
10.1145 10.7415 l
10.1181 10.7547 l
10.1223 10.7763 l
10.1235 10.7781 l
10.1373 10.7781 l
10.1373 10.7775 l
10.1193 10.6851 l
10.1181 10.6827 l
10.0125 10.6827 l
10.0107 10.6833 l
10.0029 10.7511 10.0425 10.8177 10.0593 10.8849 curveto
10.0773 10.9437 10.0767 11.0157 10.0281 11.0613 curveto
9.97526 11.1111 9.88226 11.0967 9.84686 11.0331 curveto
9.79286 10.9329 9.86726 10.8309 9.88586 10.7295 curveto
9.88586 10.7241 l
9.88706 10.7229 l
9.88706 10.7169 l
9.88826 10.7157 l
9.88826 10.7049 l
9.88886 10.7037 l
9.88886 10.6851 l
9.88586 10.6827 l
9.77966 10.6827 l
9.77846 10.6839 l
9.77846 10.6893 l
9.77726 10.6905 l
9.75986 10.7775 l
9.75986 10.7781 l
9.77426 10.7781 l
9.77546 10.7763 l
9.77966 10.7547 l
9.78266 10.7415 l
9.78746 10.7283 l
9.78806 10.7265 l
9.78926 10.7253 l
9.79166 10.7241 l
9.79466 10.7229 l
9.80006 10.7223 l
9.80126 10.7211 l
9.81026 10.7211 l
9.81086 10.7199 l
9.87206 10.7199 l
9.85346 10.8009 9.77426 10.8573 9.76646 10.9419 curveto
9.75806 11.0319 9.84866 11.1009 9.93146 11.1027 curveto
9.93266 11.1039 l
9.96506 11.1039 l
closepath
closepath
gsave
0 0 0 setrgbcolor
fill
0 0 0 setrgbcolor
grestore
0 setlinejoin
0.02 setlinewidth
0 0 0 setrgbcolor
3.065 10.6833 m
1.7096 9.94692 m
0 0 0 setrgbcolor
[] 0 setdash
0.07 setlinewidth
1.7096 10.1518 m
1.7096 10.1518 m
2.7896 10.1518 l
stroke
3.065 9.94692 m
[] 0 setdash
0.02 setlinewidth
0 0 0 setrgbcolor
3.0506 9.94692 m
3.0506 9.94692 m
(0) s
3.3506 9.94692 m
(\56) s
3.5006 9.94692 m
(0) s
3.9506 9.94692 m
(h) s
4.2506 9.94692 m
(r) s
4.6004 9.94692 m
(\55) s
4.9502 9.94692 m
(0) s
5.2502 9.94692 m
(\56) s
5.4002 9.94692 m
(8) s
5.7002 9.94692 m
(5) s
6.1502 9.94692 m
(h) s
6.4502 9.94692 m
(r) s
6.65 9.94692 m
(\57) s
6.8168 9.94692 m
(a) s
7.0832 9.94692 m
(g) s
7.5332 9.94692 m
(\55) s
7.883 9.94692 m
(0) s
8.183 9.94692 m
(\56) s
8.333 9.94692 m
(8) s
8.783 9.94692 m
(\55) s
9.3578 9.94692 m
(2) s
9.6578 9.94692 m
(\56) s
9.8078 9.94692 m
(1) s
3.065 9.94692 m
1.7096 9.22692 m
1 0 0 setrgbcolor
[] 0 setdash
0.07 setlinewidth
1.7096 9.43182 m
1.7096 9.43182 m
2.7896 9.43182 l
stroke
3.065 9.22692 m
[] 0 setdash
0.02 setlinewidth
0 0 0 setrgbcolor
3.0392 9.22692 m
3.0392 9.22692 m
(3) s
3.3392 9.22692 m
(\56) s
3.4892 9.22692 m
(5) s
3.9392 9.22692 m
(h) s
4.2392 9.22692 m
(r) s
4.589 9.22692 m
(\55) s
4.9388 9.22692 m
(0) s
5.2388 9.22692 m
(\56) s
5.3888 9.22692 m
(8) s
5.6888 9.22692 m
(5) s
6.1388 9.22692 m
(h) s
6.4388 9.22692 m
(r) s
6.6386 9.22692 m
(\57) s
6.8054 9.22692 m
(a) s
7.0718 9.22692 m
(g) s
7.5218 9.22692 m
(\55) s
7.8716 9.22692 m
(0) s
8.1716 9.22692 m
(\56) s
8.3216 9.22692 m
(8) s
8.7716 9.22692 m
(\55) s
9.3464 9.22692 m
(0) s
9.6464 9.22692 m
(\56) s
9.7964 9.22692 m
(6) s
3.065 9.22692 m
1.7096 8.50692 m
0 0.501961 0 setrgbcolor
[] 0 setdash
0.07 setlinewidth
1.7096 8.71182 m
1.7096 8.71182 m
2.7896 8.71182 l
stroke
3.065 8.50692 m
[] 0 setdash
0.02 setlinewidth
0 0 0 setrgbcolor
3.047 8.50692 m
3.047 8.50692 m
(2) s
3.347 8.50692 m
(\56) s
3.497 8.50692 m
(0) s
3.947 8.50692 m
(h) s
4.247 8.50692 m
(r) s
4.5968 8.50692 m
(\55) s
4.9466 8.50692 m
(0) s
5.2466 8.50692 m
(\56) s
5.3966 8.50692 m
(8) s
5.6966 8.50692 m
(5) s
6.1466 8.50692 m
(h) s
6.4466 8.50692 m
(r) s
6.6464 8.50692 m
(\57) s
6.8132 8.50692 m
(a) s
7.0796 8.50692 m
(g) s
7.5296 8.50692 m
(\55) s
7.8794 8.50692 m
(0) s
8.1794 8.50692 m
(\56) s
8.3294 8.50692 m
(8) s
8.7794 8.50692 m
(\55) s
9.3542 8.50692 m
(0) s
9.6542 8.50692 m
(\56) s
9.8042 8.50692 m
(8) s
3.065 8.50692 m
1.7096 7.78692 m
1 0.647059 0 setrgbcolor
[] 0 setdash
0.07 setlinewidth
1.7096 7.99182 m
1.7096 7.99182 m
2.7896 7.99182 l
stroke
3.065 7.78692 m
[] 0 setdash
0.02 setlinewidth
0 0 0 setrgbcolor
3.0392 7.78692 m
3.0392 7.78692 m
(3) s
3.3392 7.78692 m
(\56) s
3.4892 7.78692 m
(5) s
3.9392 7.78692 m
(h) s
4.2392 7.78692 m
(r) s
4.589 7.78692 m
(\55) s
4.9388 7.78692 m
(2) s
5.2388 7.78692 m
(\56) s
5.3888 7.78692 m
(0) s
5.6888 7.78692 m
(0) s
6.1388 7.78692 m
(h) s
6.4388 7.78692 m
(r) s
6.6386 7.78692 m
(\57) s
6.8054 7.78692 m
(a) s
7.0718 7.78692 m
(g) s
7.5218 7.78692 m
(\55) s
7.8716 7.78692 m
(0) s
8.1716 7.78692 m
(\56) s
8.3216 7.78692 m
(8) s
8.7716 7.78692 m
(\55) s
9.3464 7.78692 m
(2) s
9.6464 7.78692 m
(\56) s
9.7964 7.78692 m
(4) s
3.065 7.78692 m
1.7096 7.06692 m
0 0 1 setrgbcolor
[] 0 setdash
0.07 setlinewidth
1.7096 7.27182 m
1.7096 7.27182 m
2.7896 7.27182 l
stroke
3.065 7.06692 m
[] 0 setdash
0.02 setlinewidth
0 0 0 setrgbcolor
3.0392 7.06692 m
3.0392 7.06692 m
(3) s
3.3392 7.06692 m
(\56) s
3.4892 7.06692 m
(5) s
3.9392 7.06692 m
(h) s
4.2392 7.06692 m
(r) s
4.589 7.06692 m
(\55) s
4.9388 7.06692 m
(0) s
5.2388 7.06692 m
(\56) s
5.3888 7.06692 m
(8) s
5.6888 7.06692 m
(5) s
6.1388 7.06692 m
(h) s
6.4388 7.06692 m
(r) s
6.6386 7.06692 m
(\57) s
6.8054 7.06692 m
(a) s
7.0718 7.06692 m
(g) s
7.5218 7.06692 m
(\55) s
7.8716 7.06692 m
(0) s
8.1716 7.06692 m
(\56) s
8.3216 7.06692 m
(8) s
8.7716 7.06692 m
(\55) s
9.3464 7.06692 m
(2) s
9.6464 7.06692 m
(\56) s
9.7964 7.06692 m
(0) s
10.0964 7.06692 m
(\54) s
10.3964 7.06692 m
(I) s
10.5962 7.06692 m
(C) s
10.9964 7.06692 m
(O) s
11.4296 7.06692 m
(S) s
11.7632 7.06692 m
(L) s
12.2798 7.06692 m
(m) s
12.7466 7.06692 m
(e) s
13.013 7.06692 m
(m) s
13.4798 7.06692 m
(o) s
13.7798 7.06692 m
(r) s
13.9796 7.06692 m
(y) s
3.065 7.06692 m
1.7096 6.34692 m
0.588235 0.588235 0.588235 setrgbcolor
[] 0 setdash
0.07 setlinewidth
1.7096 6.55182 m
1.7096 6.55182 m
2.7896 6.55182 l
stroke
3.065 6.34692 m
[] 0 setdash
0.02 setlinewidth
0 0 0 setrgbcolor
3.0506 6.34692 m
3.0506 6.34692 m
(0) s
3.3506 6.34692 m
(\56) s
3.5006 6.34692 m
(5) s
3.9506 6.34692 m
(h) s
4.2506 6.34692 m
(r) s
4.6004 6.34692 m
(\55) s
4.9502 6.34692 m
(1) s
5.2502 6.34692 m
(\56) s
5.4002 6.34692 m
(7) s
5.7002 6.34692 m
(0) s
6.1502 6.34692 m
(h) s
6.4502 6.34692 m
(r) s
6.65 6.34692 m
(\57) s
6.8168 6.34692 m
(a) s
7.0832 6.34692 m
(g) s
7.5332 6.34692 m
(\55) s
7.883 6.34692 m
(1) s
8.183 6.34692 m
(\56) s
8.333 6.34692 m
(6) s
8.783 6.34692 m
(\55) s
9.3578 6.34692 m
(1) s
9.6578 6.34692 m
(\56) s
9.8078 6.34692 m
(8) s
3.065 6.34692 m
1.7096 5.62692 m
1 0 1 setrgbcolor
[] 0 setdash
0.07 setlinewidth
1.7096 5.83182 m
1.7096 5.83182 m
2.7896 5.83182 l
stroke
3.065 5.62692 m
[] 0 setdash
0.02 setlinewidth
0 0 0 setrgbcolor
3.0578 5.62692 m
3.0578 5.62692 m
(4) s
3.3578 5.62692 m
(\56) s
3.5078 5.62692 m
(0) s
3.9578 5.62692 m
(h) s
4.2578 5.62692 m
(r) s
4.6076 5.62692 m
(\55) s
4.9574 5.62692 m
(1) s
5.2574 5.62692 m
(\56) s
5.4074 5.62692 m
(7) s
5.7074 5.62692 m
(0) s
6.1574 5.62692 m
(h) s
6.4574 5.62692 m
(r) s
6.6572 5.62692 m
(\57) s
6.824 5.62692 m
(a) s
7.0904 5.62692 m
(g) s
7.5404 5.62692 m
(\55) s
7.8902 5.62692 m
(1) s
8.1902 5.62692 m
(\56) s
8.3402 5.62692 m
(6) s
8.7902 5.62692 m
(\55) s
9.365 5.62692 m
(0) s
9.665 5.62692 m
(\56) s
9.815 5.62692 m
(9) s
3.065 5.62692 m
1.7096 4.90692 m
0 1 1 setrgbcolor
[] 0 setdash
0.07 setlinewidth
1.7096 5.11182 m
1.7096 5.11182 m
2.7896 5.11182 l
stroke
3.065 4.90692 m
[] 0 setdash
0.02 setlinewidth
0 0 0 setrgbcolor
3.0578 4.90692 m
3.0578 4.90692 m
(4) s
3.3578 4.90692 m
(\56) s
3.5078 4.90692 m
(0) s
3.9578 4.90692 m
(h) s
4.2578 4.90692 m
(r) s
4.6076 4.90692 m
(\55) s
4.9574 4.90692 m
(2) s
5.2574 4.90692 m
(\56) s
5.4074 4.90692 m
(5) s
5.7074 4.90692 m
(0) s
6.1574 4.90692 m
(h) s
6.4574 4.90692 m
(r) s
6.6572 4.90692 m
(\57) s
6.824 4.90692 m
(a) s
7.0904 4.90692 m
(g) s
7.5404 4.90692 m
(\55) s
7.8902 4.90692 m
(1) s
8.1902 4.90692 m
(\56) s
8.3402 4.90692 m
(2) s
8.7902 4.90692 m
(\55) s
9.365 4.90692 m
(2) s
9.665 4.90692 m
(\56) s
9.815 4.90692 m
(1) s
3.065 4.90692 m
newpath 1.3856 4.58292 moveto 14.6144 4.58292 l 14.6144 11.4171 l 1.3856 11.4171 l closepath
stroke
3.065 4.90692 m
0 0 0 setrgbcolor
2 2 m
showpage
grestore
%%Trailer
