11	4
time	AvgShifted	Stddev	Avg	Stddev
0	0	0.104080673468445	0	0
48	0.03885185	0.058868053747343	0	0
72	0.14734767	0.150011575916401	27.5	22.1735578260835
96	1.9545313	0.663574386118278	185.519485714286	29.972656544281
120	4.15909388333333	0.624551426332105	316.8455	51.528971040916
144	5.12578105	1.3021115120054	174.631171428571	20.3659026264256
168	5.19550271666667	1.1380878863774	147.20634	8.48545405608916
192	4.5461383	1.364033860528	132.7104075	50.4002812748986
216	3.60600805	0.473484029856341	136.61675	41.0108771816697
240	3.24421205	0.394219226097612	78.99439	20.9298141334604
336	3.50095755	0.716197828263486	52.1428575	17.5386835232264
