mkdir: cannot create directory ‘allOutputs’: File exists
Discarding allOutputs/
Copying files from bcinflow09-Done2017-07-01_15_07_49/
Copying files from bcinflow09-Done2017-07-01_15_56_12/
Copying files from bcinflow09-Done2017-07-01_15_56_20/
Discarding mergedOutputs/
Copying files from tcmult013-Done2017-07-01_15_07_49/
Copying files from tcmult013-Done2017-07-01_15_56_12/
Copying files from tcmult013-Done2017-07-01_15_56_20/
Copying files from tcmult016-Done2017-07-01_15_07_49/
Copying files from tcmult016-Done2017-07-01_15_56_12/
Copying files from tcmult016-Done2017-07-01_15_56_20/
Generating .gle files for comparing 9 simulations 
./compareResultsInFolder.sh: line 1: 31704 Segmentation fault      ./../gles.out $((var)) index.tex
GLE 4.2.4c[index.gle]-C-R-[index][.eps]
This is pdfTeX, Version 3.14159265-2.6-1.40.15 (TeX Live 2015/dev/Debian) (preloaded format=latex)
 restricted \write18 enabled.
entering extended mode
(../resultCompare.tex
LaTeX2e <2014/05/01>
Babel <3.9l> and hyphenation patterns for 4 languages loaded.
(/usr/share/texlive/texmf-dist/tex/latex/base/article.cls
Document Class: article 2014/09/29 v1.4h Standard LaTeX document class
(/usr/share/texlive/texmf-dist/tex/latex/base/size12.clo))
(/usr/share/texlive/texmf-dist/tex/latex/graphics/epsfig.sty
(/usr/share/texlive/texmf-dist/tex/latex/graphics/graphicx.sty
(/usr/share/texlive/texmf-dist/tex/latex/graphics/keyval.sty)
(/usr/share/texlive/texmf-dist/tex/latex/graphics/graphics.sty
(/usr/share/texlive/texmf-dist/tex/latex/graphics/trig.sty)
(/usr/share/texlive/texmf-dist/tex/latex/latexconfig/graphics.cfg)
(/usr/share/texlive/texmf-dist/tex/latex/graphics/dvips.def))))
(/usr/share/texlive/texmf-dist/tex/latex/graphics/color.sty
(/usr/share/texlive/texmf-dist/tex/latex/latexconfig/color.cfg)
(/usr/share/texlive/texmf-dist/tex/latex/graphics/dvipsnam.def))
(/usr/share/texlive/texmf-dist/tex/latex/psnfss/times.sty)
No file resultCompare.aux.
(/usr/share/texlive/texmf-dist/tex/latex/psnfss/ot1ptm.fd)

LaTeX Warning: File `vol_totalcb.eps' not found on input line 30.


! LaTeX Error: File `vol_totalcb.eps' not found.

See the LaTeX manual or LaTeX Companion for explanation.
Type  H <return>  for immediate help.
 ...                                              
                                                  
l.30 \includegraphics[width=6cm]{vol_totalcb.eps}
                                                 

! LaTeX Error: Cannot determine size of graphic in vol_totalcb.eps (no Bounding
Box).

See the LaTeX manual or LaTeX Companion for explanation.
Type  H <return>  for immediate help.
 ...                                              
                                                  
l.30 \includegraphics[width=6cm]{vol_totalcb.eps}
                                                 
<vol_totalcb.eps>

LaTeX Warning: File `ssumcb.eps' not found on input line 31.


! LaTeX Error: File `ssumcb.eps' not found.

See the LaTeX manual or LaTeX Companion for explanation.
Type  H <return>  for immediate help.
 ...                                              
                                                  
l.31 \includegraphics[width=6cm]{ssumcb.eps}
                                            

! LaTeX Error: Cannot determine size of graphic in ssumcb.eps (no BoundingBox).


See the LaTeX manual or LaTeX Companion for explanation.
Type  H <return>  for immediate help.
 ...                                              
                                                  
l.31 \includegraphics[width=6cm]{ssumcb.eps}
                                            
<ssumcb.eps>

LaTeX Warning: File `ssumcc.eps' not found on input line 32.


! LaTeX Error: File `ssumcc.eps' not found.

See the LaTeX manual or LaTeX Companion for explanation.
Type  H <return>  for immediate help.
 ...                                              
                                                  
l.32 \includegraphics[width=6cm]{ssumcc.eps}
                                            \\

! LaTeX Error: Cannot determine size of graphic in ssumcc.eps (no BoundingBox).


See the LaTeX manual or LaTeX Companion for explanation.
Type  H <return>  for immediate help.
 ...                                              
                                                  
l.32 \includegraphics[width=6cm]{ssumcc.eps}
                                            \\
<ssumcc.eps> <index.eps>

LaTeX Warning: File `ssumout.eps' not found on input line 34.


! LaTeX Error: File `ssumout.eps' not found.

See the LaTeX manual or LaTeX Companion for explanation.
Type  H <return>  for immediate help.
 ...                                              
                                                  
l.34 \includegraphics[width=6cm]{ssumout.eps}
                                             

! LaTeX Error: Cannot determine size of graphic in ssumout.eps (no BoundingBox)
.

See the LaTeX manual or LaTeX Companion for explanation.
Type  H <return>  for immediate help.
 ...                                              
                                                  
l.34 \includegraphics[width=6cm]{ssumout.eps}
                                             
<ssumout.eps>

LaTeX Warning: File `xapo_ig.eps' not found on input line 35.


! LaTeX Error: File `xapo_ig.eps' not found.

See the LaTeX manual or LaTeX Companion for explanation.
Type  H <return>  for immediate help.
 ...                                              
                                                  
l.35 \includegraphics[width=6cm]{xapo_ig.eps}
                                             \\

! LaTeX Error: Cannot determine size of graphic in xapo_ig.eps (no BoundingBox)
.

See the LaTeX manual or LaTeX Companion for explanation.
Type  H <return>  for immediate help.
 ...                                              
                                                  
l.35 \includegraphics[width=6cm]{xapo_ig.eps}
                                             \\
<xapo_ig.eps>

LaTeX Warning: File `vol_dec205.eps' not found on input line 36.


! LaTeX Error: File `vol_dec205.eps' not found.

See the LaTeX manual or LaTeX Companion for explanation.
Type  H <return>  for immediate help.
 ...                                              
                                                  
l.36 \includegraphics[width=6cm]{vol_dec205.eps}
                                                

! LaTeX Error: Cannot determine size of graphic in vol_dec205.eps (no BoundingB
ox).

See the LaTeX manual or LaTeX Companion for explanation.
Type  H <return>  for immediate help.
 ...                                              
                                                  
l.36 \includegraphics[width=6cm]{vol_dec205.eps}
                                                
<vol_dec205.eps>

LaTeX Warning: File `ssumccse.eps' not found on input line 46.


! LaTeX Error: File `ssumccse.eps' not found.

See the LaTeX manual or LaTeX Companion for explanation.
Type  H <return>  for immediate help.
 ...                                              
                                                  
l.46 \includegraphics[width=7cm]{ssumccse.eps}
                                              

! LaTeX Error: Cannot determine size of graphic in ssumccse.eps (no BoundingBox
).

See the LaTeX manual or LaTeX Companion for explanation.
Type  H <return>  for immediate help.
 ...                                              
                                                  
l.46 \includegraphics[width=7cm]{ssumccse.eps}
                                              
<ssumccse.eps>

LaTeX Warning: File `ssumccun.eps' not found on input line 47.


! LaTeX Error: File `ssumccun.eps' not found.

See the LaTeX manual or LaTeX Companion for explanation.
Type  H <return>  for immediate help.
 ...                                              
                                                  
l.47 \includegraphics[width=7cm]{ssumccun.eps}
                                              

! LaTeX Error: Cannot determine size of graphic in ssumccun.eps (no BoundingBox
).

See the LaTeX manual or LaTeX Companion for explanation.
Type  H <return>  for immediate help.
 ...                                              
                                                  
l.47 \includegraphics[width=7cm]{ssumccun.eps}
                                              
<ssumccun.eps>

LaTeX Warning: File `ssumccco.eps' not found on input line 48.


! LaTeX Error: File `ssumccco.eps' not found.

See the LaTeX manual or LaTeX Companion for explanation.
Type  H <return>  for immediate help.
 ...                                              
                                                  
l.48 \includegraphics[width=7cm]{ssumccco.eps}
                                              

! LaTeX Error: Cannot determine size of graphic in ssumccco.eps (no BoundingBox
).

See the LaTeX manual or LaTeX Companion for explanation.
Type  H <return>  for immediate help.
 ...                                              
                                                  
l.48 \includegraphics[width=7cm]{ssumccco.eps}
                                              
<ssumccco.eps>

LaTeX Warning: File `ssumoute.eps' not found on input line 49.


! LaTeX Error: File `ssumoute.eps' not found.

See the LaTeX manual or LaTeX Companion for explanation.
Type  H <return>  for immediate help.
 ...                                              
                                                  
l.49 \includegraphics[width=7cm]{ssumoute.eps}
                                              

! LaTeX Error: Cannot determine size of graphic in ssumoute.eps (no BoundingBox
).

See the LaTeX manual or LaTeX Companion for explanation.
Type  H <return>  for immediate help.
 ...                                              
                                                  
l.49 \includegraphics[width=7cm]{ssumoute.eps}
                                              
<ssumoute.eps> <index.eps>

LaTeX Warning: File `saffin.eps' not found on input line 62.


! LaTeX Error: File `saffin.eps' not found.

See the LaTeX manual or LaTeX Companion for explanation.
Type  H <return>  for immediate help.
 ...                                              
                                                  
l.62 \includegraphics[width=7cm]{saffin.eps}
                                            

! LaTeX Error: Cannot determine size of graphic in saffin.eps (no BoundingBox).


See the LaTeX manual or LaTeX Companion for explanation.
Type  H <return>  for immediate help.
 ...                                              
                                                  
l.62 \includegraphics[width=7cm]{saffin.eps}
                                            
<saffin.eps>

LaTeX Warning: File `aff_bc_bin0.eps' not found on input line 63.


! LaTeX Error: File `aff_bc_bin0.eps' not found.

See the LaTeX manual or LaTeX Companion for explanation.
Type  H <return>  for immediate help.
 ...                                              
                                                  
l.63 \includegraphics[width=7cm]{aff_bc_bin0.eps}
                                                 

! LaTeX Error: Cannot determine size of graphic in aff_bc_bin0.eps (no Bounding
Box).

See the LaTeX manual or LaTeX Companion for explanation.
Type  H <return>  for immediate help.
 ...                                              
                                                  
l.63 \includegraphics[width=7cm]{aff_bc_bin0.eps}
                                                 
<aff_bc_bin0.eps>

LaTeX Warning: File `aff_bc_bin3.eps' not found on input line 65.


! LaTeX Error: File `aff_bc_bin3.eps' not found.

See the LaTeX manual or LaTeX Companion for explanation.
Type  H <return>  for immediate help.
 ...                                              
                                                  
l.65 \includegraphics[width=7cm]{aff_bc_bin3.eps}
                                                 

! LaTeX Error: Cannot determine size of graphic in aff_bc_bin3.eps (no Bounding
Box).

See the LaTeX manual or LaTeX Companion for explanation.
Type  H <return>  for immediate help.
 ...                                              
                                                  
l.65 \includegraphics[width=7cm]{aff_bc_bin3.eps}
                                                 
<aff_bc_bin3.eps>

LaTeX Warning: File `aff_bc_bin6.eps' not found on input line 66.


! LaTeX Error: File `aff_bc_bin6.eps' not found.

See the LaTeX manual or LaTeX Companion for explanation.
Type  H <return>  for immediate help.
 ...                                              
                                                  
l.66 \includegraphics[width=7cm]{aff_bc_bin6.eps}
                                                 

! LaTeX Error: Cannot determine size of graphic in aff_bc_bin6.eps (no Bounding
Box).

See the LaTeX manual or LaTeX Companion for explanation.
Type  H <return>  for immediate help.
 ...                                              
                                                  
l.66 \includegraphics[width=7cm]{aff_bc_bin6.eps}
                                                 
<aff_bc_bin6.eps>

LaTeX Warning: File `aff_bc_bin8.eps' not found on input line 67.


! LaTeX Error: File `aff_bc_bin8.eps' not found.

See the LaTeX manual or LaTeX Companion for explanation.
Type  H <return>  for immediate help.
 ...                                              
                                                  
l.67 \includegraphics[width=7cm]{aff_bc_bin8.eps}
                                                 

! LaTeX Error: Cannot determine size of graphic in aff_bc_bin8.eps (no Bounding
Box).

See the LaTeX manual or LaTeX Companion for explanation.
Type  H <return>  for immediate help.
 ...                                              
                                                  
l.67 \includegraphics[width=7cm]{aff_bc_bin8.eps}
                                                 
<aff_bc_bin8.eps>

LaTeX Warning: File `aff_bc_bin9.eps' not found on input line 68.


! LaTeX Error: File `aff_bc_bin9.eps' not found.

See the LaTeX manual or LaTeX Companion for explanation.
Type  H <return>  for immediate help.
 ...                                              
                                                  
l.68 \includegraphics[width=7cm]{aff_bc_bin9.eps}
                                                 

! LaTeX Error: Cannot determine size of graphic in aff_bc_bin9.eps (no Bounding
Box).

See the LaTeX manual or LaTeX Companion for explanation.
Type  H <return>  for immediate help.
 ...                                              
                                                  
l.68 \includegraphics[width=7cm]{aff_bc_bin9.eps}
                                                 
<aff_bc_bin9.eps>

LaTeX Warning: File `ag_endhisto.eps' not found on input line 89.


! LaTeX Error: File `ag_endhisto.eps' not found.

See the LaTeX manual or LaTeX Companion for explanation.
Type  H <return>  for immediate help.
 ...                                              
                                                  
l.89 \includegraphics[width=6cm]{ag_endhisto.eps}
                                                 

! LaTeX Error: Cannot determine size of graphic in ag_endhisto.eps (no Bounding
Box).

See the LaTeX manual or LaTeX Companion for explanation.
Type  H <return>  for immediate help.
 ...                                              
                                                  
l.89 \includegraphics[width=6cm]{ag_endhisto.eps}
                                                 
<ag_endhisto.eps>

LaTeX Warning: File `ag_loaded.eps' not found on input line 90.


! LaTeX Error: File `ag_loaded.eps' not found.

See the LaTeX manual or LaTeX Companion for explanation.
Type  H <return>  for immediate help.
 ...                                              
                                                  
l.90 \includegraphics[width=6cm]{ag_loaded.eps}
                                               \\

! LaTeX Error: Cannot determine size of graphic in ag_loaded.eps (no BoundingBo
x).

See the LaTeX manual or LaTeX Companion for explanation.
Type  H <return>  for immediate help.
 ...                                              
                                                  
l.90 \includegraphics[width=6cm]{ag_loaded.eps}
                                               \\
<ag_loaded.eps>

LaTeX Warning: File `ag_collected_include_apo.eps' not found on input line 91.


! LaTeX Error: File `ag_collected_include_apo.eps' not found.

See the LaTeX manual or LaTeX Companion for explanation.
Type  H <return>  for immediate help.
 ...                                              
                                                  
l.91 ...s[width=6cm]{ag_collected_include_apo.eps}
                                                  

! LaTeX Error: Cannot determine size of graphic in ag_collected_include_apo.eps
 (no BoundingBox).

See the LaTeX manual or LaTeX Companion for explanation.
Type  H <return>  for immediate help.
 ...                                              
                                                  
l.91 ...s[width=6cm]{ag_collected_include_apo.eps}
                                                  
<ag_collected_include_apo.eps>

LaTeX Warning: File `fracFDCcoAll.eps' not found on input line 92.


! LaTeX Error: File `fracFDCcoAll.eps' not found.

See the LaTeX manual or LaTeX Companion for explanation.
Type  H <return>  for immediate help.
 ...                                              
                                                  
l.92 \includegraphics[width=6cm]{fracFDCcoAll.eps}
                                                  \\

! LaTeX Error: Cannot determine size of graphic in fracFDCcoAll.eps (no Boundin
gBox).

See the LaTeX manual or LaTeX Companion for explanation.
Type  H <return>  for immediate help.
 ...                                              
                                                  
l.92 \includegraphics[width=6cm]{fracFDCcoAll.eps}
                                                  \\
<fracFDCcoAll.eps>

LaTeX Warning: File `ag_collected_include_selected.eps' not found on input line
 93.


! LaTeX Error: File `ag_collected_include_selected.eps' not found.

See the LaTeX manual or LaTeX Companion for explanation.
Type  H <return>  for immediate help.
 ...                                              
                                                  
l.93 ...th=6cm]{ag_collected_include_selected.eps}
                                                  

! LaTeX Error: Cannot determine size of graphic in ag_collected_include_selecte
d.eps (no BoundingBox).

See the LaTeX manual or LaTeX Companion for explanation.
Type  H <return>  for immediate help.
 ...                                              
                                                  
l.93 ...th=6cm]{ag_collected_include_selected.eps}
                                                  
<ag_collected_include_selected.eps>

LaTeX Warning: File `fracFDCcoAlive.eps' not found on input line 94.


! LaTeX Error: File `fracFDCcoAlive.eps' not found.

See the LaTeX manual or LaTeX Companion for explanation.
Type  H <return>  for immediate help.
 ...                                              
                                                  
l.94 ...udegraphics[width=6cm]{fracFDCcoAlive.eps}
                                                  \\

! LaTeX Error: Cannot determine size of graphic in fracFDCcoAlive.eps (no Bound
ingBox).

See the LaTeX manual or LaTeX Companion for explanation.
Type  H <return>  for immediate help.
 ...                                              
                                                  
l.94 ...udegraphics[width=6cm]{fracFDCcoAlive.eps}
                                                  \\
<fracFDCcoAlive.eps>

LaTeX Warning: File `ag_collected_untilContact.eps' not found on input line 95.



! LaTeX Error: File `ag_collected_untilContact.eps' not found.

See the LaTeX manual or LaTeX Companion for explanation.
Type  H <return>  for immediate help.
 ...                                              
                                                  
l.95 ...[width=6cm]{ag_collected_untilContact.eps}
                                                  

! LaTeX Error: Cannot determine size of graphic in ag_collected_untilContact.ep
s (no BoundingBox).

See the LaTeX manual or LaTeX Companion for explanation.
Type  H <return>  for immediate help.
 ...                                              
                                                  
l.95 ...[width=6cm]{ag_collected_untilContact.eps}
                                                  
<ag_collected_untilContact.eps>

LaTeX Warning: File `fdcencount.eps' not found on input line 96.


! LaTeX Error: File `fdcencount.eps' not found.

See the LaTeX manual or LaTeX Companion for explanation.
Type  H <return>  for immediate help.
 ...                                              
                                                  
l.96 \includegraphics[width=6cm]{fdcencount.eps}
                                                \\

! LaTeX Error: Cannot determine size of graphic in fdcencount.eps (no BoundingB
ox).

See the LaTeX manual or LaTeX Companion for explanation.
Type  H <return>  for immediate help.
 ...                                              
                                                  
l.96 \includegraphics[width=6cm]{fdcencount.eps}
                                                \\
<fdcencount.eps>

LaTeX Warning: File `fracTFHco.eps' not found on input line 103.


! LaTeX Error: File `fracTFHco.eps' not found.

See the LaTeX manual or LaTeX Companion for explanation.
Type  H <return>  for immediate help.
 ...                                              
                                                  
l.103 \includegraphics[width=7cm]{fracTFHco.eps}
                                                

! LaTeX Error: Cannot determine size of graphic in fracTFHco.eps (no BoundingBo
x).

See the LaTeX manual or LaTeX Companion for explanation.
Type  H <return>  for immediate help.
 ...                                              
                                                  
l.103 \includegraphics[width=7cm]{fracTFHco.eps}
                                                
<fracTFHco.eps>

LaTeX Warning: File `tc_0_interac.eps' not found on input line 104.


! LaTeX Error: File `tc_0_interac.eps' not found.

See the LaTeX manual or LaTeX Companion for explanation.
Type  H <return>  for immediate help.
 ...                                              
                                                  
l.104 ...ludegraphics[width=7cm]{tc_0_interac.eps}
                                                  

! LaTeX Error: Cannot determine size of graphic in tc_0_interac.eps (no Boundin
gBox).

See the LaTeX manual or LaTeX Companion for explanation.
Type  H <return>  for immediate help.
 ...                                              
                                                  
l.104 ...ludegraphics[width=7cm]{tc_0_interac.eps}
                                                  
<tc_0_interac.eps>

LaTeX Warning: File `tc_1_interac.eps' not found on input line 105.


! LaTeX Error: File `tc_1_interac.eps' not found.

See the LaTeX manual or LaTeX Companion for explanation.
Type  H <return>  for immediate help.
 ...                                              
                                                  
l.105 ...ludegraphics[width=7cm]{tc_1_interac.eps}
                                                  

! LaTeX Error: Cannot determine size of graphic in tc_1_interac.eps (no Boundin
gBox).

See the LaTeX manual or LaTeX Companion for explanation.
Type  H <return>  for immediate help.
 ...                                              
                                                  
l.105 ...ludegraphics[width=7cm]{tc_1_interac.eps}
                                                  
<tc_1_interac.eps>

LaTeX Warning: File `tc_2_interac.eps' not found on input line 106.


! LaTeX Error: File `tc_2_interac.eps' not found.

See the LaTeX manual or LaTeX Companion for explanation.
Type  H <return>  for immediate help.
 ...                                              
                                                  
l.106 ...ludegraphics[width=7cm]{tc_2_interac.eps}
                                                  

! LaTeX Error: Cannot determine size of graphic in tc_2_interac.eps (no Boundin
gBox).

See the LaTeX manual or LaTeX Companion for explanation.
Type  H <return>  for immediate help.
 ...                                              
                                                  
l.106 ...ludegraphics[width=7cm]{tc_2_interac.eps}
                                                  
<tc_2_interac.eps>

LaTeX Warning: File `tc_3_interac.eps' not found on input line 107.


! LaTeX Error: File `tc_3_interac.eps' not found.

See the LaTeX manual or LaTeX Companion for explanation.
Type  H <return>  for immediate help.
 ...                                              
                                                  
l.107 ...ludegraphics[width=7cm]{tc_3_interac.eps}
                                                  

! LaTeX Error: Cannot determine size of graphic in tc_3_interac.eps (no Boundin
gBox).

See the LaTeX manual or LaTeX Companion for explanation.
Type  H <return>  for immediate help.
 ...                                              
                                                  
l.107 ...ludegraphics[width=7cm]{tc_3_interac.eps}
                                                  
<tc_3_interac.eps>

LaTeX Warning: File `tc_4_interac.eps' not found on input line 108.


! LaTeX Error: File `tc_4_interac.eps' not found.

See the LaTeX manual or LaTeX Companion for explanation.
Type  H <return>  for immediate help.
 ...                                              
                                                  
l.108 ...ludegraphics[width=7cm]{tc_4_interac.eps}
                                                  

! LaTeX Error: Cannot determine size of graphic in tc_4_interac.eps (no Boundin
gBox).

See the LaTeX manual or LaTeX Companion for explanation.
Type  H <return>  for immediate help.
 ...                                              
                                                  
l.108 ...ludegraphics[width=7cm]{tc_4_interac.eps}
                                                  
<tc_4_interac.eps>

LaTeX Warning: File `ndivhisto.eps' not found on input line 115.


! LaTeX Error: File `ndivhisto.eps' not found.

See the LaTeX manual or LaTeX Companion for explanation.
Type  H <return>  for immediate help.
 ...                                              
                                                  
l.115 \includegraphics[width=7cm]{ndivhisto.eps}
                                                

! LaTeX Error: Cannot determine size of graphic in ndivhisto.eps (no BoundingBo
x).

See the LaTeX manual or LaTeX Companion for explanation.
Type  H <return>  for immediate help.
 ...                                              
                                                  
l.115 \includegraphics[width=7cm]{ndivhisto.eps}
                                                
<ndivhisto.eps>

LaTeX Warning: File `recycling_accu.eps' not found on input line 116.


! LaTeX Error: File `recycling_accu.eps' not found.

See the LaTeX manual or LaTeX Companion for explanation.
Type  H <return>  for immediate help.
 ...                                              
                                                  
l.116 ...degraphics[width=7cm]{recycling_accu.eps}
                                                  

! LaTeX Error: Cannot determine size of graphic in recycling_accu.eps (no Bound
ingBox).

See the LaTeX manual or LaTeX Companion for explanation.
Type  H <return>  for immediate help.
 ...                                              
                                                  
l.116 ...degraphics[width=7cm]{recycling_accu.eps}
                                                  
<recycling_accu.eps>

LaTeX Warning: File `selected.eps' not found on input line 117.


! LaTeX Error: File `selected.eps' not found.

See the LaTeX manual or LaTeX Companion for explanation.
Type  H <return>  for immediate help.
 ...                                              
                                                  
l.117 \includegraphics[width=7cm]{selected.eps}
                                               

! LaTeX Error: Cannot determine size of graphic in selected.eps (no BoundingBox
).

See the LaTeX manual or LaTeX Companion for explanation.
Type  H <return>  for immediate help.
 ...                                              
                                                  
l.117 \includegraphics[width=7cm]{selected.eps}
                                               
<selected.eps>

LaTeX Warning: File `selected_recycle.eps' not found on input line 118.


! LaTeX Error: File `selected_recycle.eps' not found.

See the LaTeX manual or LaTeX Companion for explanation.
Type  H <return>  for immediate help.
 ...                                              
                                                  
l.118 ...graphics[width=7cm]{selected_recycle.eps}
                                                  

! LaTeX Error: Cannot determine size of graphic in selected_recycle.eps (no Bou
ndingBox).

See the LaTeX manual or LaTeX Companion for explanation.
Type  H <return>  for immediate help.
 ...                                              
                                                  
l.118 ...graphics[width=7cm]{selected_recycle.eps}
                                                  
<selected_recycle.eps>

LaTeX Warning: File `brdu.eps' not found on input line 119.


! LaTeX Error: File `brdu.eps' not found.

See the LaTeX manual or LaTeX Companion for explanation.
Type  H <return>  for immediate help.
 ...                                              
                                                  
l.119 \includegraphics[width=7cm]{brdu.eps}
                                           

! LaTeX Error: Cannot determine size of graphic in brdu.eps (no BoundingBox).

See the LaTeX manual or LaTeX Companion for explanation.
Type  H <return>  for immediate help.
 ...                                              
                                                  
l.119 \includegraphics[width=7cm]{brdu.eps}
                                           
<brdu.eps>

LaTeX Warning: File `dz2lz.eps' not found on input line 120.


! LaTeX Error: File `dz2lz.eps' not found.

See the LaTeX manual or LaTeX Companion for explanation.
Type  H <return>  for immediate help.
 ...                                              
                                                  
l.120 \includegraphics[width=7cm]{dz2lz.eps}
                                            

! LaTeX Error: Cannot determine size of graphic in dz2lz.eps (no BoundingBox).

See the LaTeX manual or LaTeX Companion for explanation.
Type  H <return>  for immediate help.
 ...                                              
                                                  
l.120 \includegraphics[width=7cm]{dz2lz.eps}
                                            
<dz2lz.eps>

LaTeX Warning: File `mutation.eps' not found on input line 127.


! LaTeX Error: File `mutation.eps' not found.

See the LaTeX manual or LaTeX Companion for explanation.
Type  H <return>  for immediate help.
 ...                                              
                                                  
l.127 \includegraphics[width=7cm]{mutation.eps}
                                               

! LaTeX Error: Cannot determine size of graphic in mutation.eps (no BoundingBox
).

See the LaTeX manual or LaTeX Companion for explanation.
Type  H <return>  for immediate help.
 ...                                              
                                                  
l.127 \includegraphics[width=7cm]{mutation.eps}
                                               
<mutation.eps>

LaTeX Warning: File `mutation_time.eps' not found on input line 128.


! LaTeX Error: File `mutation_time.eps' not found.

See the LaTeX manual or LaTeX Companion for explanation.
Type  H <return>  for immediate help.
 ...                                              
                                                  
l.128 ...udegraphics[width=7cm]{mutation_time.eps}
                                                  

! LaTeX Error: Cannot determine size of graphic in mutation_time.eps (no Boundi
ngBox).

See the LaTeX manual or LaTeX Companion for explanation.
Type  H <return>  for immediate help.
 ...                                              
                                                  
l.128 ...udegraphics[width=7cm]{mutation_time.eps}
                                                  
<mutation_time.eps>

LaTeX Warning: File `mutation_time_last_select.eps' not found on input line 129
.


! LaTeX Error: File `mutation_time_last_select.eps' not found.

See the LaTeX manual or LaTeX Companion for explanation.
Type  H <return>  for immediate help.
 ...                                              
                                                  
l.129 ...width=7cm]{mutation_time_last_select.eps}
                                                  

! LaTeX Error: Cannot determine size of graphic in mutation_time_last_select.ep
s (no BoundingBox).

See the LaTeX manual or LaTeX Companion for explanation.
Type  H <return>  for immediate help.
 ...                                              
                                                  
l.129 ...width=7cm]{mutation_time_last_select.eps}
                                                  
<mutation_time_last_select.eps>

LaTeX Warning: File `mutation_set.eps' not found on input line 130.


! LaTeX Error: File `mutation_set.eps' not found.

See the LaTeX manual or LaTeX Companion for explanation.
Type  H <return>  for immediate help.
 ...                                              
                                                  
l.130 ...ludegraphics[width=7cm]{mutation_set.eps}
                                                  

! LaTeX Error: Cannot determine size of graphic in mutation_set.eps (no Boundin
gBox).

See the LaTeX manual or LaTeX Companion for explanation.
Type  H <return>  for immediate help.
 ...                                              
                                                  
l.130 ...ludegraphics[width=7cm]{mutation_set.eps}
                                                  
<mutation_set.eps>

LaTeX Warning: File `mutation_out_histo.eps' not found on input line 131.


! LaTeX Error: File `mutation_out_histo.eps' not found.

See the LaTeX manual or LaTeX Companion for explanation.
Type  H <return>  for immediate help.
 ...                                              
                                                  
l.131 ...aphics[width=7cm]{mutation_out_histo.eps}
                                                  

! LaTeX Error: Cannot determine size of graphic in mutation_out_histo.eps (no B
oundingBox).

See the LaTeX manual or LaTeX Companion for explanation.
Type  H <return>  for immediate help.
 ...                                              
                                                  
l.131 ...aphics[width=7cm]{mutation_out_histo.eps}
                                                  
<mutation_out_histo.eps>

LaTeX Warning: File `xlogbcaff_day3.eps' not found on input line 146.


! LaTeX Error: File `xlogbcaff_day3.eps' not found.

See the LaTeX manual or LaTeX Companion for explanation.
Type  H <return>  for immediate help.
 ...                                              
                                                  
l.146 ...degraphics[width=8cm]{xlogbcaff_day3.eps}
                                                  

! LaTeX Error: Cannot determine size of graphic in xlogbcaff_day3.eps (no Bound
ingBox).

See the LaTeX manual or LaTeX Companion for explanation.
Type  H <return>  for immediate help.
 ...                                              
                                                  
l.146 ...degraphics[width=8cm]{xlogbcaff_day3.eps}
                                                  
<xlogbcaff_day3.eps>

LaTeX Warning: File `xlogbcaff_day5.eps' not found on input line 147.


! LaTeX Error: File `xlogbcaff_day5.eps' not found.

See the LaTeX manual or LaTeX Companion for explanation.
Type  H <return>  for immediate help.
 ...                                              
                                                  
l.147 ...degraphics[width=8cm]{xlogbcaff_day5.eps}
                                                  

! LaTeX Error: Cannot determine size of graphic in xlogbcaff_day5.eps (no Bound
ingBox).

See the LaTeX manual or LaTeX Companion for explanation.
Type  H <return>  for immediate help.
 ...                                              
                                                  
l.147 ...degraphics[width=8cm]{xlogbcaff_day5.eps}
                                                  
<xlogbcaff_day5.eps>

LaTeX Warning: File `xlogbcaff_day7.eps' not found on input line 148.


! LaTeX Error: File `xlogbcaff_day7.eps' not found.

See the LaTeX manual or LaTeX Companion for explanation.
Type  H <return>  for immediate help.
 ...                                              
                                                  
l.148 ...degraphics[width=8cm]{xlogbcaff_day7.eps}
                                                  

! LaTeX Error: Cannot determine size of graphic in xlogbcaff_day7.eps (no Bound
ingBox).

See the LaTeX manual or LaTeX Companion for explanation.
Type  H <return>  for immediate help.
 ...                                              
                                                  
l.148 ...degraphics[width=8cm]{xlogbcaff_day7.eps}
                                                  
<xlogbcaff_day7.eps>

LaTeX Warning: File `xlogbcaff_day9.eps' not found on input line 149.


! LaTeX Error: File `xlogbcaff_day9.eps' not found.

See the LaTeX manual or LaTeX Companion for explanation.
Type  H <return>  for immediate help.
 ...                                              
                                                  
l.149 ...degraphics[width=8cm]{xlogbcaff_day9.eps}
                                                  

! LaTeX Error: Cannot determine size of graphic in xlogbcaff_day9.eps (no Bound
ingBox).

See the LaTeX manual or LaTeX Companion for explanation.
Type  H <return>  for immediate help.
 ...                                              
                                                  
l.149 ...degraphics[width=8cm]{xlogbcaff_day9.eps}
                                                  
<xlogbcaff_day9.eps>

LaTeX Warning: File `xlogbcaff_day11.eps' not found on input line 150.


! LaTeX Error: File `xlogbcaff_day11.eps' not found.

See the LaTeX manual or LaTeX Companion for explanation.
Type  H <return>  for immediate help.
 ...                                              
                                                  
l.150 ...egraphics[width=8cm]{xlogbcaff_day11.eps}
                                                  

! LaTeX Error: Cannot determine size of graphic in xlogbcaff_day11.eps (no Boun
dingBox).

See the LaTeX manual or LaTeX Companion for explanation.
Type  H <return>  for immediate help.
 ...                                              
                                                  
l.150 ...egraphics[width=8cm]{xlogbcaff_day11.eps}
                                                  
<xlogbcaff_day11.eps>

LaTeX Warning: File `xlogbcaff_day21.eps' not found on input line 151.


! LaTeX Error: File `xlogbcaff_day21.eps' not found.

See the LaTeX manual or LaTeX Companion for explanation.
Type  H <return>  for immediate help.
 ...                                              
                                                  
l.151 ...egraphics[width=8cm]{xlogbcaff_day21.eps}
                                                  

! LaTeX Error: Cannot determine size of graphic in xlogbcaff_day21.eps (no Boun
dingBox).

See the LaTeX manual or LaTeX Companion for explanation.
Type  H <return>  for immediate help.
 ...                                              
                                                  
l.151 ...egraphics[width=8cm]{xlogbcaff_day21.eps}
                                                  
<xlogbcaff_day21.eps> [1] [2] [3] [4] [5] [6] [7] [8] (./resultCompare.aux) )
(see the transcript file for additional information)
Output written on resultCompare.dvi (8 pages, 6644 bytes).
Transcript written on resultCompare.log.
This is pdfTeX, Version 3.14159265-2.6-1.40.15 (TeX Live 2015/dev/Debian) (preloaded format=latex)
 restricted \write18 enabled.
entering extended mode
(../resultCompare.tex
LaTeX2e <2014/05/01>
Babel <3.9l> and hyphenation patterns for 4 languages loaded.
(/usr/share/texlive/texmf-dist/tex/latex/base/article.cls
Document Class: article 2014/09/29 v1.4h Standard LaTeX document class
(/usr/share/texlive/texmf-dist/tex/latex/base/size12.clo))
(/usr/share/texlive/texmf-dist/tex/latex/graphics/epsfig.sty
(/usr/share/texlive/texmf-dist/tex/latex/graphics/graphicx.sty
(/usr/share/texlive/texmf-dist/tex/latex/graphics/keyval.sty)
(/usr/share/texlive/texmf-dist/tex/latex/graphics/graphics.sty
(/usr/share/texlive/texmf-dist/tex/latex/graphics/trig.sty)
(/usr/share/texlive/texmf-dist/tex/latex/latexconfig/graphics.cfg)
(/usr/share/texlive/texmf-dist/tex/latex/graphics/dvips.def))))
(/usr/share/texlive/texmf-dist/tex/latex/graphics/color.sty
(/usr/share/texlive/texmf-dist/tex/latex/latexconfig/color.cfg)
(/usr/share/texlive/texmf-dist/tex/latex/graphics/dvipsnam.def))
(/usr/share/texlive/texmf-dist/tex/latex/psnfss/times.sty) (./resultCompare.aux
) (/usr/share/texlive/texmf-dist/tex/latex/psnfss/ot1ptm.fd)

LaTeX Warning: File `vol_totalcb.eps' not found on input line 30.


! LaTeX Error: File `vol_totalcb.eps' not found.

See the LaTeX manual or LaTeX Companion for explanation.
Type  H <return>  for immediate help.
 ...                                              
                                                  
l.30 \includegraphics[width=6cm]{vol_totalcb.eps}
                                                 

! LaTeX Error: Cannot determine size of graphic in vol_totalcb.eps (no Bounding
Box).

See the LaTeX manual or LaTeX Companion for explanation.
Type  H <return>  for immediate help.
 ...                                              
                                                  
l.30 \includegraphics[width=6cm]{vol_totalcb.eps}
                                                 
<vol_totalcb.eps>

LaTeX Warning: File `ssumcb.eps' not found on input line 31.


! LaTeX Error: File `ssumcb.eps' not found.

See the LaTeX manual or LaTeX Companion for explanation.
Type  H <return>  for immediate help.
 ...                                              
                                                  
l.31 \includegraphics[width=6cm]{ssumcb.eps}
                                            

! LaTeX Error: Cannot determine size of graphic in ssumcb.eps (no BoundingBox).


See the LaTeX manual or LaTeX Companion for explanation.
Type  H <return>  for immediate help.
 ...                                              
                                                  
l.31 \includegraphics[width=6cm]{ssumcb.eps}
                                            
<ssumcb.eps>

LaTeX Warning: File `ssumcc.eps' not found on input line 32.


! LaTeX Error: File `ssumcc.eps' not found.

See the LaTeX manual or LaTeX Companion for explanation.
Type  H <return>  for immediate help.
 ...                                              
                                                  
l.32 \includegraphics[width=6cm]{ssumcc.eps}
                                            \\

! LaTeX Error: Cannot determine size of graphic in ssumcc.eps (no BoundingBox).


See the LaTeX manual or LaTeX Companion for explanation.
Type  H <return>  for immediate help.
 ...                                              
                                                  
l.32 \includegraphics[width=6cm]{ssumcc.eps}
                                            \\
<ssumcc.eps> <index.eps>

LaTeX Warning: File `ssumout.eps' not found on input line 34.


! LaTeX Error: File `ssumout.eps' not found.

See the LaTeX manual or LaTeX Companion for explanation.
Type  H <return>  for immediate help.
 ...                                              
                                                  
l.34 \includegraphics[width=6cm]{ssumout.eps}
                                             

! LaTeX Error: Cannot determine size of graphic in ssumout.eps (no BoundingBox)
.

See the LaTeX manual or LaTeX Companion for explanation.
Type  H <return>  for immediate help.
 ...                                              
                                                  
l.34 \includegraphics[width=6cm]{ssumout.eps}
                                             
<ssumout.eps>

LaTeX Warning: File `xapo_ig.eps' not found on input line 35.


! LaTeX Error: File `xapo_ig.eps' not found.

See the LaTeX manual or LaTeX Companion for explanation.
Type  H <return>  for immediate help.
 ...                                              
                                                  
l.35 \includegraphics[width=6cm]{xapo_ig.eps}
                                             \\

! LaTeX Error: Cannot determine size of graphic in xapo_ig.eps (no BoundingBox)
.

See the LaTeX manual or LaTeX Companion for explanation.
Type  H <return>  for immediate help.
 ...                                              
                                                  
l.35 \includegraphics[width=6cm]{xapo_ig.eps}
                                             \\
<xapo_ig.eps>

LaTeX Warning: File `vol_dec205.eps' not found on input line 36.


! LaTeX Error: File `vol_dec205.eps' not found.

See the LaTeX manual or LaTeX Companion for explanation.
Type  H <return>  for immediate help.
 ...                                              
                                                  
l.36 \includegraphics[width=6cm]{vol_dec205.eps}
                                                

! LaTeX Error: Cannot determine size of graphic in vol_dec205.eps (no BoundingB
ox).

See the LaTeX manual or LaTeX Companion for explanation.
Type  H <return>  for immediate help.
 ...                                              
                                                  
l.36 \includegraphics[width=6cm]{vol_dec205.eps}
                                                
<vol_dec205.eps>

LaTeX Warning: File `ssumccse.eps' not found on input line 46.


! LaTeX Error: File `ssumccse.eps' not found.

See the LaTeX manual or LaTeX Companion for explanation.
Type  H <return>  for immediate help.
 ...                                              
                                                  
l.46 \includegraphics[width=7cm]{ssumccse.eps}
                                              

! LaTeX Error: Cannot determine size of graphic in ssumccse.eps (no BoundingBox
).

See the LaTeX manual or LaTeX Companion for explanation.
Type  H <return>  for immediate help.
 ...                                              
                                                  
l.46 \includegraphics[width=7cm]{ssumccse.eps}
                                              
<ssumccse.eps>

LaTeX Warning: File `ssumccun.eps' not found on input line 47.


! LaTeX Error: File `ssumccun.eps' not found.

See the LaTeX manual or LaTeX Companion for explanation.
Type  H <return>  for immediate help.
 ...                                              
                                                  
l.47 \includegraphics[width=7cm]{ssumccun.eps}
                                              

! LaTeX Error: Cannot determine size of graphic in ssumccun.eps (no BoundingBox
).

See the LaTeX manual or LaTeX Companion for explanation.
Type  H <return>  for immediate help.
 ...                                              
                                                  
l.47 \includegraphics[width=7cm]{ssumccun.eps}
                                              
<ssumccun.eps>

LaTeX Warning: File `ssumccco.eps' not found on input line 48.


! LaTeX Error: File `ssumccco.eps' not found.

See the LaTeX manual or LaTeX Companion for explanation.
Type  H <return>  for immediate help.
 ...                                              
                                                  
l.48 \includegraphics[width=7cm]{ssumccco.eps}
                                              

! LaTeX Error: Cannot determine size of graphic in ssumccco.eps (no BoundingBox
).

See the LaTeX manual or LaTeX Companion for explanation.
Type  H <return>  for immediate help.
 ...                                              
                                                  
l.48 \includegraphics[width=7cm]{ssumccco.eps}
                                              
<ssumccco.eps>

LaTeX Warning: File `ssumoute.eps' not found on input line 49.


! LaTeX Error: File `ssumoute.eps' not found.

See the LaTeX manual or LaTeX Companion for explanation.
Type  H <return>  for immediate help.
 ...                                              
                                                  
l.49 \includegraphics[width=7cm]{ssumoute.eps}
                                              

! LaTeX Error: Cannot determine size of graphic in ssumoute.eps (no BoundingBox
).

See the LaTeX manual or LaTeX Companion for explanation.
Type  H <return>  for immediate help.
 ...                                              
                                                  
l.49 \includegraphics[width=7cm]{ssumoute.eps}
                                              
<ssumoute.eps> <index.eps>

LaTeX Warning: File `saffin.eps' not found on input line 62.


! LaTeX Error: File `saffin.eps' not found.

See the LaTeX manual or LaTeX Companion for explanation.
Type  H <return>  for immediate help.
 ...                                              
                                                  
l.62 \includegraphics[width=7cm]{saffin.eps}
                                            

! LaTeX Error: Cannot determine size of graphic in saffin.eps (no BoundingBox).


See the LaTeX manual or LaTeX Companion for explanation.
Type  H <return>  for immediate help.
 ...                                              
                                                  
l.62 \includegraphics[width=7cm]{saffin.eps}
                                            
<saffin.eps>

LaTeX Warning: File `aff_bc_bin0.eps' not found on input line 63.


! LaTeX Error: File `aff_bc_bin0.eps' not found.

See the LaTeX manual or LaTeX Companion for explanation.
Type  H <return>  for immediate help.
 ...                                              
                                                  
l.63 \includegraphics[width=7cm]{aff_bc_bin0.eps}
                                                 

! LaTeX Error: Cannot determine size of graphic in aff_bc_bin0.eps (no Bounding
Box).

See the LaTeX manual or LaTeX Companion for explanation.
Type  H <return>  for immediate help.
 ...                                              
                                                  
l.63 \includegraphics[width=7cm]{aff_bc_bin0.eps}
                                                 
<aff_bc_bin0.eps>

LaTeX Warning: File `aff_bc_bin3.eps' not found on input line 65.


! LaTeX Error: File `aff_bc_bin3.eps' not found.

See the LaTeX manual or LaTeX Companion for explanation.
Type  H <return>  for immediate help.
 ...                                              
                                                  
l.65 \includegraphics[width=7cm]{aff_bc_bin3.eps}
                                                 

! LaTeX Error: Cannot determine size of graphic in aff_bc_bin3.eps (no Bounding
Box).

See the LaTeX manual or LaTeX Companion for explanation.
Type  H <return>  for immediate help.
 ...                                              
                                                  
l.65 \includegraphics[width=7cm]{aff_bc_bin3.eps}
                                                 
<aff_bc_bin3.eps>

LaTeX Warning: File `aff_bc_bin6.eps' not found on input line 66.


! LaTeX Error: File `aff_bc_bin6.eps' not found.

See the LaTeX manual or LaTeX Companion for explanation.
Type  H <return>  for immediate help.
 ...                                              
                                                  
l.66 \includegraphics[width=7cm]{aff_bc_bin6.eps}
                                                 

! LaTeX Error: Cannot determine size of graphic in aff_bc_bin6.eps (no Bounding
Box).

See the LaTeX manual or LaTeX Companion for explanation.
Type  H <return>  for immediate help.
 ...                                              
                                                  
l.66 \includegraphics[width=7cm]{aff_bc_bin6.eps}
                                                 
<aff_bc_bin6.eps>

LaTeX Warning: File `aff_bc_bin8.eps' not found on input line 67.


! LaTeX Error: File `aff_bc_bin8.eps' not found.

See the LaTeX manual or LaTeX Companion for explanation.
Type  H <return>  for immediate help.
 ...                                              
                                                  
l.67 \includegraphics[width=7cm]{aff_bc_bin8.eps}
                                                 

! LaTeX Error: Cannot determine size of graphic in aff_bc_bin8.eps (no Bounding
Box).

See the LaTeX manual or LaTeX Companion for explanation.
Type  H <return>  for immediate help.
 ...                                              
                                                  
l.67 \includegraphics[width=7cm]{aff_bc_bin8.eps}
                                                 
<aff_bc_bin8.eps>

LaTeX Warning: File `aff_bc_bin9.eps' not found on input line 68.


! LaTeX Error: File `aff_bc_bin9.eps' not found.

See the LaTeX manual or LaTeX Companion for explanation.
Type  H <return>  for immediate help.
 ...                                              
                                                  
l.68 \includegraphics[width=7cm]{aff_bc_bin9.eps}
                                                 

! LaTeX Error: Cannot determine size of graphic in aff_bc_bin9.eps (no Bounding
Box).

See the LaTeX manual or LaTeX Companion for explanation.
Type  H <return>  for immediate help.
 ...                                              
                                                  
l.68 \includegraphics[width=7cm]{aff_bc_bin9.eps}
                                                 
<aff_bc_bin9.eps>

LaTeX Warning: File `ag_endhisto.eps' not found on input line 89.


! LaTeX Error: File `ag_endhisto.eps' not found.

See the LaTeX manual or LaTeX Companion for explanation.
Type  H <return>  for immediate help.
 ...                                              
                                                  
l.89 \includegraphics[width=6cm]{ag_endhisto.eps}
                                                 

! LaTeX Error: Cannot determine size of graphic in ag_endhisto.eps (no Bounding
Box).

See the LaTeX manual or LaTeX Companion for explanation.
Type  H <return>  for immediate help.
 ...                                              
                                                  
l.89 \includegraphics[width=6cm]{ag_endhisto.eps}
                                                 
<ag_endhisto.eps>

LaTeX Warning: File `ag_loaded.eps' not found on input line 90.


! LaTeX Error: File `ag_loaded.eps' not found.

See the LaTeX manual or LaTeX Companion for explanation.
Type  H <return>  for immediate help.
 ...                                              
                                                  
l.90 \includegraphics[width=6cm]{ag_loaded.eps}
                                               \\

! LaTeX Error: Cannot determine size of graphic in ag_loaded.eps (no BoundingBo
x).

See the LaTeX manual or LaTeX Companion for explanation.
Type  H <return>  for immediate help.
 ...                                              
                                                  
l.90 \includegraphics[width=6cm]{ag_loaded.eps}
                                               \\
<ag_loaded.eps>

LaTeX Warning: File `ag_collected_include_apo.eps' not found on input line 91.


! LaTeX Error: File `ag_collected_include_apo.eps' not found.

See the LaTeX manual or LaTeX Companion for explanation.
Type  H <return>  for immediate help.
 ...                                              
                                                  
l.91 ...s[width=6cm]{ag_collected_include_apo.eps}
                                                  

! LaTeX Error: Cannot determine size of graphic in ag_collected_include_apo.eps
 (no BoundingBox).

See the LaTeX manual or LaTeX Companion for explanation.
Type  H <return>  for immediate help.
 ...                                              
                                                  
l.91 ...s[width=6cm]{ag_collected_include_apo.eps}
                                                  
<ag_collected_include_apo.eps>

LaTeX Warning: File `fracFDCcoAll.eps' not found on input line 92.


! LaTeX Error: File `fracFDCcoAll.eps' not found.

See the LaTeX manual or LaTeX Companion for explanation.
Type  H <return>  for immediate help.
 ...                                              
                                                  
l.92 \includegraphics[width=6cm]{fracFDCcoAll.eps}
                                                  \\

! LaTeX Error: Cannot determine size of graphic in fracFDCcoAll.eps (no Boundin
gBox).

See the LaTeX manual or LaTeX Companion for explanation.
Type  H <return>  for immediate help.
 ...                                              
                                                  
l.92 \includegraphics[width=6cm]{fracFDCcoAll.eps}
                                                  \\
<fracFDCcoAll.eps>

LaTeX Warning: File `ag_collected_include_selected.eps' not found on input line
 93.


! LaTeX Error: File `ag_collected_include_selected.eps' not found.

See the LaTeX manual or LaTeX Companion for explanation.
Type  H <return>  for immediate help.
 ...                                              
                                                  
l.93 ...th=6cm]{ag_collected_include_selected.eps}
                                                  

! LaTeX Error: Cannot determine size of graphic in ag_collected_include_selecte
d.eps (no BoundingBox).

See the LaTeX manual or LaTeX Companion for explanation.
Type  H <return>  for immediate help.
 ...                                              
                                                  
l.93 ...th=6cm]{ag_collected_include_selected.eps}
                                                  
<ag_collected_include_selected.eps>

LaTeX Warning: File `fracFDCcoAlive.eps' not found on input line 94.


! LaTeX Error: File `fracFDCcoAlive.eps' not found.

See the LaTeX manual or LaTeX Companion for explanation.
Type  H <return>  for immediate help.
 ...                                              
                                                  
l.94 ...udegraphics[width=6cm]{fracFDCcoAlive.eps}
                                                  \\

! LaTeX Error: Cannot determine size of graphic in fracFDCcoAlive.eps (no Bound
ingBox).

See the LaTeX manual or LaTeX Companion for explanation.
Type  H <return>  for immediate help.
 ...                                              
                                                  
l.94 ...udegraphics[width=6cm]{fracFDCcoAlive.eps}
                                                  \\
<fracFDCcoAlive.eps>

LaTeX Warning: File `ag_collected_untilContact.eps' not found on input line 95.



! LaTeX Error: File `ag_collected_untilContact.eps' not found.

See the LaTeX manual or LaTeX Companion for explanation.
Type  H <return>  for immediate help.
 ...                                              
                                                  
l.95 ...[width=6cm]{ag_collected_untilContact.eps}
                                                  

! LaTeX Error: Cannot determine size of graphic in ag_collected_untilContact.ep
s (no BoundingBox).

See the LaTeX manual or LaTeX Companion for explanation.
Type  H <return>  for immediate help.
 ...                                              
                                                  
l.95 ...[width=6cm]{ag_collected_untilContact.eps}
                                                  
<ag_collected_untilContact.eps>

LaTeX Warning: File `fdcencount.eps' not found on input line 96.


! LaTeX Error: File `fdcencount.eps' not found.

See the LaTeX manual or LaTeX Companion for explanation.
Type  H <return>  for immediate help.
 ...                                              
                                                  
l.96 \includegraphics[width=6cm]{fdcencount.eps}
                                                \\

! LaTeX Error: Cannot determine size of graphic in fdcencount.eps (no BoundingB
ox).

See the LaTeX manual or LaTeX Companion for explanation.
Type  H <return>  for immediate help.
 ...                                              
                                                  
l.96 \includegraphics[width=6cm]{fdcencount.eps}
                                                \\
<fdcencount.eps>

LaTeX Warning: File `fracTFHco.eps' not found on input line 103.


! LaTeX Error: File `fracTFHco.eps' not found.

See the LaTeX manual or LaTeX Companion for explanation.
Type  H <return>  for immediate help.
 ...                                              
                                                  
l.103 \includegraphics[width=7cm]{fracTFHco.eps}
                                                

! LaTeX Error: Cannot determine size of graphic in fracTFHco.eps (no BoundingBo
x).

See the LaTeX manual or LaTeX Companion for explanation.
Type  H <return>  for immediate help.
 ...                                              
                                                  
l.103 \includegraphics[width=7cm]{fracTFHco.eps}
                                                
<fracTFHco.eps>

LaTeX Warning: File `tc_0_interac.eps' not found on input line 104.


! LaTeX Error: File `tc_0_interac.eps' not found.

See the LaTeX manual or LaTeX Companion for explanation.
Type  H <return>  for immediate help.
 ...                                              
                                                  
l.104 ...ludegraphics[width=7cm]{tc_0_interac.eps}
                                                  

! LaTeX Error: Cannot determine size of graphic in tc_0_interac.eps (no Boundin
gBox).

See the LaTeX manual or LaTeX Companion for explanation.
Type  H <return>  for immediate help.
 ...                                              
                                                  
l.104 ...ludegraphics[width=7cm]{tc_0_interac.eps}
                                                  
<tc_0_interac.eps>

LaTeX Warning: File `tc_1_interac.eps' not found on input line 105.


! LaTeX Error: File `tc_1_interac.eps' not found.

See the LaTeX manual or LaTeX Companion for explanation.
Type  H <return>  for immediate help.
 ...                                              
                                                  
l.105 ...ludegraphics[width=7cm]{tc_1_interac.eps}
                                                  

! LaTeX Error: Cannot determine size of graphic in tc_1_interac.eps (no Boundin
gBox).

See the LaTeX manual or LaTeX Companion for explanation.
Type  H <return>  for immediate help.
 ...                                              
                                                  
l.105 ...ludegraphics[width=7cm]{tc_1_interac.eps}
                                                  
<tc_1_interac.eps>

LaTeX Warning: File `tc_2_interac.eps' not found on input line 106.


! LaTeX Error: File `tc_2_interac.eps' not found.

See the LaTeX manual or LaTeX Companion for explanation.
Type  H <return>  for immediate help.
 ...                                              
                                                  
l.106 ...ludegraphics[width=7cm]{tc_2_interac.eps}
                                                  

! LaTeX Error: Cannot determine size of graphic in tc_2_interac.eps (no Boundin
gBox).

See the LaTeX manual or LaTeX Companion for explanation.
Type  H <return>  for immediate help.
 ...                                              
                                                  
l.106 ...ludegraphics[width=7cm]{tc_2_interac.eps}
                                                  
<tc_2_interac.eps>

LaTeX Warning: File `tc_3_interac.eps' not found on input line 107.


! LaTeX Error: File `tc_3_interac.eps' not found.

See the LaTeX manual or LaTeX Companion for explanation.
Type  H <return>  for immediate help.
 ...                                              
                                                  
l.107 ...ludegraphics[width=7cm]{tc_3_interac.eps}
                                                  

! LaTeX Error: Cannot determine size of graphic in tc_3_interac.eps (no Boundin
gBox).

See the LaTeX manual or LaTeX Companion for explanation.
Type  H <return>  for immediate help.
 ...                                              
                                                  
l.107 ...ludegraphics[width=7cm]{tc_3_interac.eps}
                                                  
<tc_3_interac.eps>

LaTeX Warning: File `tc_4_interac.eps' not found on input line 108.


! LaTeX Error: File `tc_4_interac.eps' not found.

See the LaTeX manual or LaTeX Companion for explanation.
Type  H <return>  for immediate help.
 ...                                              
                                                  
l.108 ...ludegraphics[width=7cm]{tc_4_interac.eps}
                                                  

! LaTeX Error: Cannot determine size of graphic in tc_4_interac.eps (no Boundin
gBox).

See the LaTeX manual or LaTeX Companion for explanation.
Type  H <return>  for immediate help.
 ...                                              
                                                  
l.108 ...ludegraphics[width=7cm]{tc_4_interac.eps}
                                                  
<tc_4_interac.eps>

LaTeX Warning: File `ndivhisto.eps' not found on input line 115.


! LaTeX Error: File `ndivhisto.eps' not found.

See the LaTeX manual or LaTeX Companion for explanation.
Type  H <return>  for immediate help.
 ...                                              
                                                  
l.115 \includegraphics[width=7cm]{ndivhisto.eps}
                                                

! LaTeX Error: Cannot determine size of graphic in ndivhisto.eps (no BoundingBo
x).

See the LaTeX manual or LaTeX Companion for explanation.
Type  H <return>  for immediate help.
 ...                                              
                                                  
l.115 \includegraphics[width=7cm]{ndivhisto.eps}
                                                
<ndivhisto.eps>

LaTeX Warning: File `recycling_accu.eps' not found on input line 116.


! LaTeX Error: File `recycling_accu.eps' not found.

See the LaTeX manual or LaTeX Companion for explanation.
Type  H <return>  for immediate help.
 ...                                              
                                                  
l.116 ...degraphics[width=7cm]{recycling_accu.eps}
                                                  

! LaTeX Error: Cannot determine size of graphic in recycling_accu.eps (no Bound
ingBox).

See the LaTeX manual or LaTeX Companion for explanation.
Type  H <return>  for immediate help.
 ...                                              
                                                  
l.116 ...degraphics[width=7cm]{recycling_accu.eps}
                                                  
<recycling_accu.eps>

LaTeX Warning: File `selected.eps' not found on input line 117.


! LaTeX Error: File `selected.eps' not found.

See the LaTeX manual or LaTeX Companion for explanation.
Type  H <return>  for immediate help.
 ...                                              
                                                  
l.117 \includegraphics[width=7cm]{selected.eps}
                                               

! LaTeX Error: Cannot determine size of graphic in selected.eps (no BoundingBox
).

See the LaTeX manual or LaTeX Companion for explanation.
Type  H <return>  for immediate help.
 ...                                              
                                                  
l.117 \includegraphics[width=7cm]{selected.eps}
                                               
<selected.eps>

LaTeX Warning: File `selected_recycle.eps' not found on input line 118.


! LaTeX Error: File `selected_recycle.eps' not found.

See the LaTeX manual or LaTeX Companion for explanation.
Type  H <return>  for immediate help.
 ...                                              
                                                  
l.118 ...graphics[width=7cm]{selected_recycle.eps}
                                                  

! LaTeX Error: Cannot determine size of graphic in selected_recycle.eps (no Bou
ndingBox).

See the LaTeX manual or LaTeX Companion for explanation.
Type  H <return>  for immediate help.
 ...                                              
                                                  
l.118 ...graphics[width=7cm]{selected_recycle.eps}
                                                  
<selected_recycle.eps>

LaTeX Warning: File `brdu.eps' not found on input line 119.


! LaTeX Error: File `brdu.eps' not found.

See the LaTeX manual or LaTeX Companion for explanation.
Type  H <return>  for immediate help.
 ...                                              
                                                  
l.119 \includegraphics[width=7cm]{brdu.eps}
                                           

! LaTeX Error: Cannot determine size of graphic in brdu.eps (no BoundingBox).

See the LaTeX manual or LaTeX Companion for explanation.
Type  H <return>  for immediate help.
 ...                                              
                                                  
l.119 \includegraphics[width=7cm]{brdu.eps}
                                           
<brdu.eps>

LaTeX Warning: File `dz2lz.eps' not found on input line 120.


! LaTeX Error: File `dz2lz.eps' not found.

See the LaTeX manual or LaTeX Companion for explanation.
Type  H <return>  for immediate help.
 ...                                              
                                                  
l.120 \includegraphics[width=7cm]{dz2lz.eps}
                                            

! LaTeX Error: Cannot determine size of graphic in dz2lz.eps (no BoundingBox).

See the LaTeX manual or LaTeX Companion for explanation.
Type  H <return>  for immediate help.
 ...                                              
                                                  
l.120 \includegraphics[width=7cm]{dz2lz.eps}
                                            
<dz2lz.eps>

LaTeX Warning: File `mutation.eps' not found on input line 127.


! LaTeX Error: File `mutation.eps' not found.

See the LaTeX manual or LaTeX Companion for explanation.
Type  H <return>  for immediate help.
 ...                                              
                                                  
l.127 \includegraphics[width=7cm]{mutation.eps}
                                               

! LaTeX Error: Cannot determine size of graphic in mutation.eps (no BoundingBox
).

See the LaTeX manual or LaTeX Companion for explanation.
Type  H <return>  for immediate help.
 ...                                              
                                                  
l.127 \includegraphics[width=7cm]{mutation.eps}
                                               
<mutation.eps>

LaTeX Warning: File `mutation_time.eps' not found on input line 128.


! LaTeX Error: File `mutation_time.eps' not found.

See the LaTeX manual or LaTeX Companion for explanation.
Type  H <return>  for immediate help.
 ...                                              
                                                  
l.128 ...udegraphics[width=7cm]{mutation_time.eps}
                                                  

! LaTeX Error: Cannot determine size of graphic in mutation_time.eps (no Boundi
ngBox).

See the LaTeX manual or LaTeX Companion for explanation.
Type  H <return>  for immediate help.
 ...                                              
                                                  
l.128 ...udegraphics[width=7cm]{mutation_time.eps}
                                                  
<mutation_time.eps>

LaTeX Warning: File `mutation_time_last_select.eps' not found on input line 129
.


! LaTeX Error: File `mutation_time_last_select.eps' not found.

See the LaTeX manual or LaTeX Companion for explanation.
Type  H <return>  for immediate help.
 ...                                              
                                                  
l.129 ...width=7cm]{mutation_time_last_select.eps}
                                                  

! LaTeX Error: Cannot determine size of graphic in mutation_time_last_select.ep
s (no BoundingBox).

See the LaTeX manual or LaTeX Companion for explanation.
Type  H <return>  for immediate help.
 ...                                              
                                                  
l.129 ...width=7cm]{mutation_time_last_select.eps}
                                                  
<mutation_time_last_select.eps>

LaTeX Warning: File `mutation_set.eps' not found on input line 130.


! LaTeX Error: File `mutation_set.eps' not found.

See the LaTeX manual or LaTeX Companion for explanation.
Type  H <return>  for immediate help.
 ...                                              
                                                  
l.130 ...ludegraphics[width=7cm]{mutation_set.eps}
                                                  

! LaTeX Error: Cannot determine size of graphic in mutation_set.eps (no Boundin
gBox).

See the LaTeX manual or LaTeX Companion for explanation.
Type  H <return>  for immediate help.
 ...                                              
                                                  
l.130 ...ludegraphics[width=7cm]{mutation_set.eps}
                                                  
<mutation_set.eps>

LaTeX Warning: File `mutation_out_histo.eps' not found on input line 131.


! LaTeX Error: File `mutation_out_histo.eps' not found.

See the LaTeX manual or LaTeX Companion for explanation.
Type  H <return>  for immediate help.
 ...                                              
                                                  
l.131 ...aphics[width=7cm]{mutation_out_histo.eps}
                                                  

! LaTeX Error: Cannot determine size of graphic in mutation_out_histo.eps (no B
oundingBox).

See the LaTeX manual or LaTeX Companion for explanation.
Type  H <return>  for immediate help.
 ...                                              
                                                  
l.131 ...aphics[width=7cm]{mutation_out_histo.eps}
                                                  
<mutation_out_histo.eps>

LaTeX Warning: File `xlogbcaff_day3.eps' not found on input line 146.


! LaTeX Error: File `xlogbcaff_day3.eps' not found.

See the LaTeX manual or LaTeX Companion for explanation.
Type  H <return>  for immediate help.
 ...                                              
                                                  
l.146 ...degraphics[width=8cm]{xlogbcaff_day3.eps}
                                                  

! LaTeX Error: Cannot determine size of graphic in xlogbcaff_day3.eps (no Bound
ingBox).

See the LaTeX manual or LaTeX Companion for explanation.
Type  H <return>  for immediate help.
 ...                                              
                                                  
l.146 ...degraphics[width=8cm]{xlogbcaff_day3.eps}
                                                  
<xlogbcaff_day3.eps>

LaTeX Warning: File `xlogbcaff_day5.eps' not found on input line 147.


! LaTeX Error: File `xlogbcaff_day5.eps' not found.

See the LaTeX manual or LaTeX Companion for explanation.
Type  H <return>  for immediate help.
 ...                                              
                                                  
l.147 ...degraphics[width=8cm]{xlogbcaff_day5.eps}
                                                  

! LaTeX Error: Cannot determine size of graphic in xlogbcaff_day5.eps (no Bound
ingBox).

See the LaTeX manual or LaTeX Companion for explanation.
Type  H <return>  for immediate help.
 ...                                              
                                                  
l.147 ...degraphics[width=8cm]{xlogbcaff_day5.eps}
                                                  
<xlogbcaff_day5.eps>

LaTeX Warning: File `xlogbcaff_day7.eps' not found on input line 148.


! LaTeX Error: File `xlogbcaff_day7.eps' not found.

See the LaTeX manual or LaTeX Companion for explanation.
Type  H <return>  for immediate help.
 ...                                              
                                                  
l.148 ...degraphics[width=8cm]{xlogbcaff_day7.eps}
                                                  

! LaTeX Error: Cannot determine size of graphic in xlogbcaff_day7.eps (no Bound
ingBox).

See the LaTeX manual or LaTeX Companion for explanation.
Type  H <return>  for immediate help.
 ...                                              
                                                  
l.148 ...degraphics[width=8cm]{xlogbcaff_day7.eps}
                                                  
<xlogbcaff_day7.eps>

LaTeX Warning: File `xlogbcaff_day9.eps' not found on input line 149.


! LaTeX Error: File `xlogbcaff_day9.eps' not found.

See the LaTeX manual or LaTeX Companion for explanation.
Type  H <return>  for immediate help.
 ...                                              
                                                  
l.149 ...degraphics[width=8cm]{xlogbcaff_day9.eps}
                                                  

! LaTeX Error: Cannot determine size of graphic in xlogbcaff_day9.eps (no Bound
ingBox).

See the LaTeX manual or LaTeX Companion for explanation.
Type  H <return>  for immediate help.
 ...                                              
                                                  
l.149 ...degraphics[width=8cm]{xlogbcaff_day9.eps}
                                                  
<xlogbcaff_day9.eps>

LaTeX Warning: File `xlogbcaff_day11.eps' not found on input line 150.


! LaTeX Error: File `xlogbcaff_day11.eps' not found.

See the LaTeX manual or LaTeX Companion for explanation.
Type  H <return>  for immediate help.
 ...                                              
                                                  
l.150 ...egraphics[width=8cm]{xlogbcaff_day11.eps}
                                                  

! LaTeX Error: Cannot determine size of graphic in xlogbcaff_day11.eps (no Boun
dingBox).

See the LaTeX manual or LaTeX Companion for explanation.
Type  H <return>  for immediate help.
 ...                                              
                                                  
l.150 ...egraphics[width=8cm]{xlogbcaff_day11.eps}
                                                  
<xlogbcaff_day11.eps>

LaTeX Warning: File `xlogbcaff_day21.eps' not found on input line 151.


! LaTeX Error: File `xlogbcaff_day21.eps' not found.

See the LaTeX manual or LaTeX Companion for explanation.
Type  H <return>  for immediate help.
 ...                                              
                                                  
l.151 ...egraphics[width=8cm]{xlogbcaff_day21.eps}
                                                  

! LaTeX Error: Cannot determine size of graphic in xlogbcaff_day21.eps (no Boun
dingBox).

See the LaTeX manual or LaTeX Companion for explanation.
Type  H <return>  for immediate help.
 ...                                              
                                                  
l.151 ...egraphics[width=8cm]{xlogbcaff_day21.eps}
                                                  
<xlogbcaff_day21.eps> [1] [2] [3] [4] [5] [6] [7] [8] (./resultCompare.aux) )
(see the transcript file for additional information)
Output written on resultCompare.dvi (8 pages, 6644 bytes).
Transcript written on resultCompare.log.
dvips: Could not find figure file vol_totalcb.eps; continuing.
dvips: Could not find figure file ssumcb.eps; continuing.
dvips: Could not find figure file ssumcc.eps; continuing.
dvips: Could not find figure file ssumout.eps; continuing.
dvips: Could not find figure file xapo_ig.eps; continuing.
dvips: Could not find figure file vol_dec205.eps; continuing.
dvips: Could not find figure file ssumccse.eps; continuing.
dvips: Could not find figure file ssumccun.eps; continuing.
dvips: Could not find figure file ssumccco.eps; continuing.
dvips: Could not find figure file ssumoute.eps; continuing.
dvips: Could not find figure file saffin.eps; continuing.
dvips: Could not find figure file aff_bc_bin0.eps; continuing.
dvips: Could not find figure file aff_bc_bin3.eps; continuing.
dvips: Could not find figure file aff_bc_bin6.eps; continuing.
dvips: Could not find figure file aff_bc_bin8.eps; continuing.
dvips: Could not find figure file aff_bc_bin9.eps; continuing.
dvips: Could not find figure file ag_endhisto.eps; continuing.
dvips: Could not find figure file ag_loaded.eps; continuing.
dvips: Could not find figure file ag_collected_include_apo.eps; continuing.
dvips: Could not find figure file fracFDCcoAll.eps; continuing.
dvips: Could not find figure file ag_collected_include_selected.eps; continuing.
dvips: Could not find figure file fracFDCcoAlive.eps; continuing.
dvips: Could not find figure file ag_collected_untilContact.eps; continuing.
dvips: Could not find figure file fdcencount.eps; continuing.
dvips: Could not find figure file fracTFHco.eps; continuing.
dvips: Could not find figure file tc_0_interac.eps; continuing.
dvips: Could not find figure file tc_1_interac.eps; continuing.
dvips: Could not find figure file tc_2_interac.eps; continuing.
dvips: Could not find figure file tc_3_interac.eps; continuing.
dvips: Could not find figure file tc_4_interac.eps; continuing.
dvips: Could not find figure file ndivhisto.eps; continuing.
dvips: Could not find figure file recycling_accu.eps; continuing.
dvips: Could not find figure file selected.eps; continuing.
dvips: Could not find figure file selected_recycle.eps; continuing.
dvips: Could not find figure file brdu.eps; continuing.
dvips: Could not find figure file dz2lz.eps; continuing.
dvips: Could not find figure file mutation.eps; continuing.
dvips: Could not find figure file mutation_time.eps; continuing.
dvips: Could not find figure file mutation_time_last_select.eps; continuing.
dvips: Could not find figure file mutation_set.eps; continuing.
dvips: Could not find figure file mutation_out_histo.eps; continuing.
dvips: Could not find figure file xlogbcaff_day3.eps; continuing.
dvips: Could not find figure file xlogbcaff_day5.eps; continuing.
dvips: Could not find figure file xlogbcaff_day7.eps; continuing.
dvips: Could not find figure file xlogbcaff_day9.eps; continuing.
dvips: Could not find figure file xlogbcaff_day11.eps; continuing.
dvips: Could not find figure file xlogbcaff_day21.eps; continuing.
